Name,Division,Sex,WeightClassKg,Best3BenchKg,TotalKg,Event,Equipment,Place
D. Love,Girls,F,,40.82,40.82,B,Raw,1
L. Lichtenstein,Light,M,,149.69,149.69,B,Raw,1
B. Wiggins,Middle,M,,163.29,163.29,B,Raw,1
Bob McKee,Heavy,M,,181.44,181.44,B,Raw,1
T. Owen,SuperHeavy,M,,183.71,183.71,B,Raw,1
