Place,Sex,Name,CyrillicName,BodyweightKg,Squat1Kg,Squat2Kg,Squat3Kg,Best3SquatKg,Squat4Kg,Bench1Kg,Bench2Kg,Bench3Kg,Best3BenchKg,Bench4Kg,Deadlift1Kg,Deadlift2Kg,Deadlift3Kg,Best3DeadliftKg,Deadlift4Kg,TotalKg,WeightClassKg,Event,Equipment,Tested,Division,Age,BirthDate
1,F,Galina Gruzdeva,Галина Груздева,64.9,65,70,75,75,,45,-50,50,50,,75,85,95,95,,220,67.5,SBD,Raw,No,Open,29,1987-04-26
1,M,Nikolay Zhiltsov,Николай Жильцов,81.2,190,200,210,210,,140,145,150,150,,-220,225,-245,225,,585,82.5,SBD,Raw,No,Open,29,1987-09-09
1,M,Aleksandr Smirnov,Александр Смирнов,89.4,210,220,-225,220,,170,177.5,182.5,182.5,,235,-245,245,245,,647.5,90,SBD,Raw,No,Open,23,1992-11-08
2,M,Aleksandr Serov,Александр Серов,87,-180,-180,180,180,,115,122.5,-125,122.5,,170,180,,180,,482.5,90,SBD,Raw,No,Open,24,1992-02-11
1,M,Vyacheslav Nevzorov,Вячеслав Невзоров,104.2,230,250,260,260,,160,167.5,172.5,172.5,,240,267.5,275,275,,707.5,110,SBD,Raw,No,Juniors 20-23,21,1995-10-09
1,M,Andrey Bonokin,Андрей Бонокин,88.4,-200,230,235,235,,-130,137.5,-142.5,137.5,,200,215,225,225,,597.5,90,SBD,Wraps,No,Teen 18-19,19,1997-08-14
1,M,Valeriy Bertram,Валерий Бертрам,85.7,200,215,225,225,,150,155,-160,155,,200,207.5,220,220,,600,90,SBD,Wraps,No,Open,24,1992-06-03
2,M,Georgiy Mashurov,Георгий Машуров,86.9,200,210,215,215,,120,130,140,140,,200,225,232.5,232.5,,587.5,90,SBD,Wraps,No,Open,33,1982-11-05
1,M,Ivan Nesterov,Иван Нестеров,95.7,250,270,285,285,,160,175,182.5,182.5,,-260,-260,260,260,,727.5,100,SBD,Wraps,No,Open,24,1992-04-03
2,M,Pavel Moiseev,Павел Моисеев,100,215,-225,-225,215,,135,140,-145,140,,185,195,210,210,,565,100,SBD,Wraps,No,Open,28,1988-09-11
1,M,Ivan Solovev,Иван Соловьев,115.3,340,,,340,,220,230,240,240,,300,-315,,300,,880,125,SBD,Wraps,No,Open,32,1984-01-15
1,M,Anatoliy Chesnokov,Анатолий Чесноков,127.6,190,-205,-205,190,,150,-160,,150,,230,250,262.5,262.5,,602.5,140,SBD,Wraps,No,Open,33,1982-11-04
1,M,Andrey Yankovskiy,Андрей Янковский,58.4,-75,-75,75,75,,65,70,,70,,110,120,-140,120,,265,60,SBD,Wraps,Yes,Teen 13-15,15,2001-03-20
1,M,Maksim Protasov,Максим Протасов,109.5,285,,,285,,185,200,-205,200,,250,275,-287.5,275,,760,110,SBD,Wraps,Yes,Open,30,1986-04-07
2,M,Evgeniy Sidorovskiy,Евгений Сидоровский,107.7,-240,250,260,260,,-155,155,160,160,,250,260,265,265,,685,110,SBD,Wraps,Yes,Open,38,1977-12-23
1,F,Irina Chizhova,Ирина Чижова,51.8,97.5,,,97.5,,47.5,50,52.5,52.5,,110,115,122.5,122.5,,272.5,52,SBD,Raw,Yes,Juniors 20-23,23,1993-03-14
1,F,Diana Voronova,Диана Воронова,55.1,-90,-90,90,90,,55,62.5,-65,62.5,,90,100,105,105,,257.5,56,SBD,Raw,Yes,Open,27,1988-11-15
1,F,Alena Kuzmina,Алена Кузьмина,61.7,80,-85,87.5,87.5,,40,-47.5,-47.5,40,,85,95,110,110,,237.5,67.5,SBD,Raw,Yes,Open,25,1991-01-28
1,F,Natalya Lovtsova,Наталья Ловцова,71.2,120,130,140,140,,90,100,-107.5,100,,140,152.5,165,165,,405,75,SBD,Raw,Yes,Open,30,1986-05-29
2,F,Natalya Cherkasova,Наталья Черкасова,71.8,115,-122.5,-122.5,115,,-60,-60,60,60,,120,125,130,130,,305,75,SBD,Raw,Yes,Open,40,1976-05-30
1,M,Aleksandr Semenov,Александр Семенов,68.2,-110,110,-120,110,,60,-70,-70,60,,120,130,135,135,,305,75,SBD,Raw,Yes,Teen 16-17,17,1999-07-05
1,M,Evgeniy Tikhonov,Евгений Тихонов,72.6,120,127.5,132.5,132.5,,105,112.5,-117.5,112.5,,170,180,190,190,,435,75,SBD,Raw,Yes,Open,26,1990-01-17
1,M,Roman Sekelchuk,Роман Секельчук,79.6,170,185,200,200,,132.5,140,145,145,,205,215,-222.5,215,,560,82.5,SBD,Raw,Yes,Open,28,1988-06-08
2,M,Nikita Shumilov,Никита Шумилов,81,150,160,-170,160,,-140,140,145,145,,-205,-205,205,205,,510,82.5,SBD,Raw,Yes,Open,23,1993-04-09
DQ,M,Dmitriy Novak,Дмитрий Новак,86.8,-150,-150,-150,,,,,,,,,,,,,,90,SBD,Raw,Yes,Juniors 20-23,21,1994-10-31
1,M,Aleksey Bragin,Алексей Брагин,98.7,200,210,-220,210,,155,162.5,165,165,,230,250,260,260,,635,100,SBD,Raw,Yes,Open,32,1984-02-13
2,M,Yuliy Chernositov,Юлий Черноситов,92.5,185,195,200,200,,152.5,160,,160,,195,205,207.5,207.5,,567.5,100,SBD,Raw,Yes,Open,36,1979-11-30
1,M,Denis Pyanov,Денис Пьянов,103.7,240,-255,255,255,,-150,150,-155,150,,225,235,245,245,,650,110,SBD,Single-ply,Yes,Teen 18-19,19,1997-07-10
DQ,M,Denis Pyanov,Денис Пьянов,109,255,,,255,,,,,,,,,,,,,110,SBD,Single-ply,No,Teen 18-19,19,1997-07-10
1,F,Kristina Palguy,Кристина Пальгуй,64.5,70,77.5,95,95,,,,,,,,,,,,95,67.5,S,Wraps,Yes,Juniors 20-23,22,1994-03-30
1,M,Georgiy Mashurov,Георгий Машуров,86.9,215,,,215,,,,,,,,,,,,215,90,S,Wraps,Yes,Open,33,1982-11-05
1,M,Maksim Protasov,Максим Протасов,109.5,250,270,285,285,,,,,,,,,,,,285,110,S,Wraps,Yes,Open,30,1986-04-07
1,F,Mariya Bekasova,Мария Бекасова,59.5,62.5,67.5,72.5,72.5,,,,,,,,,,,,72.5,60,S,Wraps,No,Open,29,1987-08-11
1,M,Sergey Surkov,Сергей Сурков,85.6,165,180,210,210,,,,,,,,,,,,210,90,S,Wraps,No,Open,31,1985-10-14
1,M,Ivan Nesterov,Иван Нестеров,95.7,285,,,285,,,,,,,,,,,,285,100,S,Wraps,No,Open,24,1992-04-03
2,M,Mikhail Kolydanov,Михаил Колыданов,97.5,230,235,-237.5,235,,,,,,,,,,,,235,100,S,Wraps,No,Open,37,1979-04-30
3,M,Pavel Moiseev,Павел Моисеев,100,-215,215,,215,,,,,,,,,,,,215,100,S,Wraps,No,Open,28,1988-09-11
1,M,Sergey Lapin,Сергей Лапин,97.8,210,-220,-230,210,,,,,,,,,,,,210,100,S,Wraps,No,Masters 45-49,47,1969-06-23
1,M,Vladimir Grechin,Владимир Гречин,91,210,225,-240,225,,,,,,,,,,,,225,100,S,Wraps,No,Masters 45-49,49,1967-01-30
1,F,Irina Chizhova,Ирина Чижова,51.8,97.5,102.5,107.5,107.5,,,,,,,,,,,,107.5,52,S,Raw,Yes,Juniors 20-23,23,1993-03-14
1,M,Artem Zhukov,Артем Жуков,81.4,180,190,192.5,192.5,,,,,,,,,,,,192.5,82.5,S,Raw,Yes,Teen 16-17,17,1999-03-10
1,F,Ekaterina Larina,Екатерина Ларина,59.3,-125,135,-142.5,135,,,,,,,,,,,,135,60,S,Raw,No,Teen 18-19,18,1997-10-31
1,F,Galina Gruzdeva,Галина Груздева,64.9,75,,,75,,,,,,,,,,,,75,67.5,S,Raw,No,Open,29,1987-04-26
1,M,Denis Pyanov,Денис Пьянов,103.7,255,,,255,,,,,,,,,,,,255,110,S,Single-ply,Yes,Teen 18-19,19,1997-07-10
DQ,M,Andrey Yankovskiy,Андрей Янковский,58.4,,,,,,-75,-75,-75,,,,,,,,,60,B,Single-ply,Yes,Teen 13-15,15,2001-03-20
1,M,Aleksandr Golubev,Александр Голубев,98.3,,,,,,207.5,215,222.5,222.5,,,,,,,222.5,100,B,Single-ply,No,Open,26,1990-07-31
1,M,Diana Voronova,Диана Воронова,55.1,,,,,,62.5,,,62.5,,,,,,,62.5,56,B,Raw,Yes,Open,27,1988-11-15
1,F,Ekaterina Dudareva,Екатерина Дударева,59.5,,,,,,75,-77.5,77.5,77.5,,,,,,,77.5,60,B,Raw,Yes,Open,22,1993-11-08
2,F,Olga Tyurina,Ольга Тюрина,60,,,,,,75,-77.5,-77.5,75,,,,,,,75,60,B,Raw,Yes,Open,38,1977-12-09
1,F,Vladislava Dluzhnevskaya,Владислава Длужневская,60.8,,,,,,100,105,-107.5,105,,,,,,,105,67.5,B,Raw,Yes,Teen 16-17,16,2000-06-10
1,F,Kristina Palguy,Кристина Пальгуй,64.5,,,,,,45,-57.5,-57.5,45,,,,,,,45,67.5,B,Raw,Yes,Juniors 20-23,22,1994-03-30
1,F,Vladislava Dluzhnevskaya,Владислава Длужневская,60.8,,,,,,100,105,-107.5,105,,,,,,,105,67.5,B,Raw,Yes,Open,16,2000-06-10
2,F,Svetlana Myshelovskaya,Светлана Мышеловская,62.9,,,,,,67.5,-70,-70,67.5,,,,,,,67.5,67.5,B,Raw,Yes,Open,32,1984-08-08
1,F,Marina Kozlova,Марина Козлова,76.5,,,,,,42.5,45,-47.5,45,,,,,,,45,82.5,B,Raw,Yes,Open,31,1985-06-27
1,M,Dmitriy Kukin,Дмитрий Кукин,63.4,,,,,,85,95,-102.5,95,,,,,,,95,67.5,B,Raw,Yes,Teen 18-19,18,1998-04-29
1,M,Nikita Samokhvalov,Никита Самохвалов,65.7,,,,,,135,142.5,-150,142.5,,,,,,,142.5,67.5,B,Raw,Yes,Open,28,1988-08-11
1,M,Aleksandr Bondarev,Александр Бондарев,72.5,,,,,,95,-105,-105,95,,,,,,,95,75,B,Raw,Yes,Teen 18-19,18,1998-07-21
1,M,Evgeniy Alferov,Евгений Алферов,74.4,,,,,,145,155,-160,155,,,,,,,155,75,B,Raw,Yes,Open,27,1988-12-20
2,M,Aleksandr Smirnov,Александр Смирнов,73.5,,,,,,130,135,,135,,,,,,,135,75,B,Raw,Yes,Open,27,1989-03-22
3,M,Evgeniy Tikhonov,Евгений Тихонов,72.6,,,,,,112.5,,,112.5,,,,,,,112.5,75,B,Raw,Yes,Open,26,1990-01-17
4,M,Artem Olshanskiy,Артем Ольшанский,74.8,,,,,,100,110,-117.5,110,,,,,,,110,75,B,Raw,Yes,Open,33,1983-08-25
1,M,Vladislav Klimantev,Владислав Климантьев,80,,,,,,117.5,122.5,127.5,127.5,,,,,,,127.5,82.5,B,Raw,Yes,Juniors 20-23,22,1994-05-23
1,M,Nikita Shumilov,Никита Шумилов,81,,,,,,145,,,145,,,,,,,145,82.5,B,Raw,Yes,Open,23,1993-04-09
2,M,Dmitriy Sedov #3,Дмитрий Седов,82.5,,,,,,-140,140,145,145,,,,,,,145,82.5,B,Raw,Yes,Open,30,1986-10-06
3,M,Aleksandr Aybabin,Александр Айбабин,79.9,,,,,,127.5,132.5,-135,132.5,,,,,,,132.5,82.5,B,Raw,Yes,Open,32,1984-01-30
4,M,Ilya Rybakov,Илья Рыбаков,79.7,,,,,,117.5,127.5,-135,127.5,,,,,,,127.5,82.5,B,Raw,Yes,Open,26,1990-05-27
5,M,Maksim Tulikov,Максим Туликов,82.5,,,,,,127.5,-132.5,-132.5,127.5,,,,,,,127.5,82.5,B,Raw,Yes,Open,39,1977-06-26
1,M,Anton Potekhin,Антон Потехин,86.9,,,,,,132.5,140,147.5,147.5,,,,,,,147.5,90,B,Raw,Yes,Juniors 20-23,21,1995-02-10
1,M,Vladislav Girko,Владислав Гирко,88.4,,,,,,157.5,-162.5,-162.5,157.5,,,,,,,157.5,90,B,Raw,Yes,Open,29,1987-09-19
2,M,Sergey Kochukov,Сергей Кочуков,88.9,,,,,,145,152.5,157.5,157.5,,,,,,,157.5,90,B,Raw,Yes,Open,59,1957-10-14
DQ,M,Kirill Streltsov,Кирилл Стрельцов,88.2,,,,,,-140,-140,-140,,,,,,,,,90,B,Raw,Yes,Open,29,1987-02-20
1,M,Nikita Gubenskiy,Никита Губенский,100,,,,,,190,,,190,,,,,,,190,100,B,Raw,Yes,Juniors 20-23,21,1995-04-06
2,M,Dmitriy Varivoda,Дмитрий Варивода,99.5,,,,,,155,160,165,165,,,,,,,165,100,B,Raw,Yes,Juniors 20-23,21,1994-12-18
3,M,Aleksandr Popov,Александр Попов,97.6,,,,,,135,140,-145,140,,,,,,,140,100,B,Raw,Yes,Juniors 20-23,23,1993-01-01
4,M,Evgeniy Moiseev,Евгений Моисеев,93.5,,,,,,130,-140,-140,130,,,,,,,130,100,B,Raw,Yes,Juniors 20-23,21,1995-01-11
5,M,Artem Bogdanov,Артем Богданов,95.4,,,,,,125,130,-140,130,,,,,,,130,100,B,Raw,Yes,Juniors 20-23,21,1995-01-17
6,M,Gleb Silantev,Глеб Силантьев,98.5,,,,,,130,-140,-140,130,,,,,,,130,100,B,Raw,Yes,Juniors 20-23,20,1996-05-03
1,M,Igor Mikhaylyuk,Игорь Михайлюк,98.9,,,,,,145,155,162.5,162.5,,,,,,,162.5,100,B,Raw,Yes,Open,30,1986-01-26
2,M,Nikolay Gorbachev,Николай Горбачев,98,,,,,,142.5,150,157.5,157.5,,,,,,,157.5,100,B,Raw,Yes,Open,38,1978-02-11
1,M,Dmitriy Zharkov,Дмитрий Жарков,98,,,,,,160,165,170,170,,,,,,,170,100,B,Raw,Yes,Masters 45-49,46,1970-04-03
1,M,Ilya Karpov,Илья Карпов,109.6,,,,,,185,195,-200,195,,,,,,,195,110,B,Raw,Yes,Juniors 20-23,23,1993-06-29
1,M,Aleksandr Kolosov,Александр Колосов,103.8,,,,,,192.5,197.5,-202.5,197.5,,,,,,,197.5,110,B,Raw,Yes,Open,33,1983-05-06
2,M,Evgeniy Sroslov,Евгений Срослов,109.8,,,,,,160,-167.5,-167.5,160,,,,,,,160,110,B,Raw,Yes,Open,38,1978-07-15
DQ,M,Viktor Zheltushko,Виктор Желтушко,104.5,,,,,,-167.5,-167.5,-167.5,,,,,,,,,110,B,Raw,Yes,Open,38,1978-01-29
1,M,Ivan Arsentev,Иван Арсентьев,119.6,,,,,,210,220,-222.5,220,,,,,,,220,125,B,Raw,Yes,Open,40,1976-06-04
1,M,Ivan Arsentev,Иван Арсентьев,119.6,,,,,,210,220,-222.5,220,,,,,,,220,125,B,Raw,Yes,Masters 40-44,40,1976-06-04
1,F,Mariya Bekasova,Мария Бекасова,59.5,,,,,,30,35,-42.5,35,,,,,,,35,60,B,Raw,No,Open,29,1987-08-11
1,M,Vladimir Osipov,Владимир Осипов,63.3,,,,,,-132.5,132.5,-142.5,132.5,,,,,,,132.5,67.5,B,Raw,No,Open,31,1985-10-27
1,M,Elchin Ismailov,Эльчин Исмаилов,82.5,,,,,,150,160,165,165,,,,,,,165,82.5,B,Raw,No,Open,27,1989-01-21
2,M,Artur Minasyan,Артур Минасян,78.4,,,,,,135,142.5,-150,142.5,,,,,,,142.5,82.5,B,Raw,No,Open,28,1988-02-09
3,M,Artem Latyshev,Артем Латышев,77.6,,,,,,110,,,110,,,,,,,110,82.5,B,Raw,No,Open,35,1981-01-05
1,M,Stanislav Rotkin,Станислав Роткин,89.4,,,,,,170,175,181,181,-185,,,,,,181,90,B,Raw,No,Juniors 20-23,23,1993-07-07
1,M,Aleksandr Smirnov,Александр Смирнов,89.4,,,,,,182.5,,,182.5,,,,,,,182.5,90,B,Raw,No,Open,23,1992-11-08
2,M,Sergey Surkov,Сергей Сурков,85.6,,,,,,140,,,140,,,,,,,140,90,B,Raw,No,Open,31,1985-10-14
3,M,Aleksey Novikov,Алексей Новиков,87.4,,,,,,130,-135,-135,130,,,,,,,130,90,B,Raw,No,Open,26,1990-01-09
1,M,Aleksandr Golubev,Александр Голубев,98.3,,,,,,175,185,,185,,,,,,,185,100,B,Raw,No,Open,26,1990-07-31
1,M,Ilya Arefev,Илья Арефьев,106.7,,,,,,175,-192.5,-192.5,175,,,,,,,175,110,B,Raw,No,Juniors 20-23,21,1995-01-16
1,M,Vasiliy Filatov,Василий Филатов,104.3,,,,,,200,-205,205,205,,,,,,,205,110,B,Raw,No,Open,27,1989-02-24
2,M,Mikhail Solovev,Михаил Соловьев,108,,,,,,-200,200,-205,200,,,,,,,200,110,B,Raw,No,Open,31,1985-08-17
3,M,Dmitriy Kuzmin,Дмитрий Кузьмин,107.3,,,,,,180,192.5,-202.5,192.5,,,,,,,192.5,110,B,Raw,No,Open,32,1984-10-05
4,M,Denis Kochnev,Денис Кочнев,109,,,,,,170,,,170,,,,,,,170,110,B,Raw,No,Open,35,1980-12-21
5,M,Aleksandr Sharov,Александр Шаров,106.9,,,,,,162.5,-167.5,167.5,167.5,,,,,,,167.5,110,B,Raw,No,Open,32,1984-03-25
1,M,Sergey Korotkov,Сергей Коротков,106,,,,,,175,192.5,195,195,,,,,,,195,110,B,Raw,No,Masters 40-44,43,1973-04-27
1,M,Ivan Solovev,Иван Соловьев,115.3,,,,,,240,,,240,,,,,,,240,125,B,Raw,No,Open,32,1984-01-15
2,M,Evgeniy Avdulov,Евгений Авдулов,116.2,,,,,,180,190,-195,190,,,,,,,190,125,B,Raw,No,Open,32,1983-11-04
DQ,M,Maksim Smekalov,Максим Смекалов,113.4,,,,,,-255,,,,,,,,,,,125,B,Raw,No,Open,30,1986-05-05
1,M,Ivan Palilov,Иван Палилов,128.7,,,,,,220,-230,-230,220,,,,,,,220,140,B,Raw,No,Open,39,1976-11-14
2,M,Andrey Nazentsev,Андрей Назенцев,135.5,,,,,,190,210,-220,210,,,,,,,210,140,B,Raw,No,Open,32,1983-11-22
3,M,Valeriy Utkin,Валерий Уткин,139.9,,,,,,195,-205,210,210,,,,,,,210,140,B,Raw,No,Open,39,1977-01-11
1,F,Svetlana Limushkina,Светлана Лимушкина,59.3,,,,,,,,,,,120,125,-130,125,,125,60,D,Raw,No,Open,37,1979-04-02
1,F,Galina Gruzdeva,Галина Груздева,64.9,,,,,,,,,,,95,,,95,,95,67.5,D,Raw,No,Open,29,1987-04-26
1,M,Ivan Aleksandrov,Иван Александров,80.2,,,,,,,,,,,240,250,260,260,,260,82.5,D,Raw,No,Open,26,1990-06-12
2,M,Nikolay Zhiltsov,Николай Жильцов,81.2,,,,,,,,,,,225,,,225,,225,82.5,D,Raw,No,Open,29,1987-09-09
3,M,Artem Latyshev,Артем Латышев,77.6,,,,,,,,,,,180,,,180,,180,82.5,D,Raw,No,Open,35,1981-01-05
1,M,Artem Kochenyuk,Артем Коченюк,85.7,,,,,,,,,,,260,280,-300,280,,280,90,D,Raw,No,Open,27,1989-03-04
2,M,Georgiy Mashurov,Георгий Машуров,86.9,,,,,,,,,,,232.5,,,232.5,,232.5,90,D,Raw,No,Open,33,1982-11-05
3,M,Sergey Surkov,Сергей Сурков,85.6,,,,,,,,,,,225,,,225,,225,90,D,Raw,No,Open,31,1985-10-14
DQ,M,Kirill Tsaparov,Кирилл Цапаров,84.4,,,,,,,,,,,-280,-280,-300,,,,90,D,Raw,No,Open,32,1984-09-30
1,M,Ivan Nesterov,Иван Нестеров,95.7,,,,,,,,,,,260,,,260,,260,100,D,Raw,No,Open,24,1992-04-03
2,M,Pavel Moiseev,Павел Моисеев,100,,,,,,,,,,,210,,,210,,210,100,D,Raw,No,Open,28,1988-09-11
1,M,Valentin Efremov,Валентин Ефремов,103.1,,,,,,,,,,,-240,245,-255,245,,245,110,D,Raw,No,Open,30,1986-02-13
2,M,Denis Kochnev,Денис Кочнев,109,,,,,,,,,,,240,,,240,,240,110,D,Raw,No,Open,35,1980-12-21
1,M,Bogdan Soldatenkov,Богдан Солдатенков,120.3,,,,,,,,,,,230,245,-250,245,,245,125,D,Raw,No,Juniors 20-23,23,1993-07-24
1,M,Konstantin Smirnov,Константин Смирнов,81.9,,,,,,,,,,,170,-190,190,190,,190,82.5,D,Raw,Yes,Open,28,1988-08-27
1,M,Pavel Kachev,Павел Качев,87,,,,,,,,,,,205,210,-215,210,,210,90,D,Raw,Yes,Open,33,1982-12-20
2,M,Ivan Skvortsov,Иван Скворцов,87.8,,,,,,,,,,,202.5,-230,,202.5,,202.5,90,D,Raw,Yes,Open,27,1989-03-16
1,M,Ivan Fomichev,Иван Фомичев,95.8,,,,,,,,,,,280,-290,,280,,280,100,D,Raw,Yes,Open,24,1992-02-03
1,M,Maksim Protasov,Максим Протасов,109.5,,,,,,,,,,,275,,,275,,275,110,D,Raw,Yes,Open,30,1986-04-07
1,M,Denis Pyanov,Денис Пьянов,103.7,,,,,,,,,,,245,,,245,,245,110,D,Raw,Yes,Teen 18-19,19,1997-07-10
