Division,WeightClassKg,Place,Name,Team,BodyweightKg,Best3SquatKg,Best3BenchKg,Best3DeadliftKg,TotalKg,Equipment,Event,Sex
Boys,51.71,1,Corey Frazier,Jasper,51.71,92.99,56.7,124.74,274.42,Single-ply,SBD,M
Boys,51.71,2,Alan Cripps,Buna,44.45,90.72,61.23,102.06,254.01,Single-ply,SBD,M
Boys,51.71,3,Nahuel Lizardia,Jasper,49.9,88.45,54.43,111.13,254.01,Single-ply,SBD,M
Boys,51.71,4,Derion Salter,Jasper,47.17,61.23,45.36,70.31,176.9,Single-ply,SBD,M
Boys,51.71,DQ,Cody Carmin,Jasper,38.56,,,,,Single-ply,SBD,M
Boys,59.87,1,Shannon Davis,Kirbyville,58.06,117.93,77.11,145.15,340.19,Single-ply,SBD,M
Boys,59.87,2,Omar Richards,Jasper,59.87,90.72,56.7,92.99,240.4,Single-ply,SBD,M
Boys,67.13,1,Deroddrick Hadnot,Jasper,65.32,197.31,117.93,199.58,514.83,Single-ply,SBD,M
Boys,67.13,2,Taylor Kibodeaux,Buna,60.78,226.8,97.52,192.78,517.1,Single-ply,SBD,M
Boys,67.13,3,Raylin Davis,Newton,66.68,174.63,92.99,163.29,430.91,Single-ply,SBD,M
Boys,67.13,4,Tavioun Fillyaw,Jasper,63.5,142.88,92.99,183.7,419.57,Single-ply,SBD,M
Boys,67.13,5,Gerard Rhodes,Newton,60.78,147.42,79.38,142.88,369.68,Single-ply,SBD,M
Boys,67.13,6,Bobby Bass,Newton,62.6,138.35,79.38,147.42,365.14,Single-ply,SBD,M
Boys,67.13,7,Jaron Hanks,Newton,64.86,154.22,79.38,122.47,356.07,Single-ply,SBD,M
Boys,67.13,8,Ledale White,Jasper,63.5,124.74,83.91,138.35,347,Single-ply,SBD,M
Boys,67.13,9,Dustin Willet,Kirbyville,66.22,124.74,79.38,136.08,340.19,Single-ply,SBD,M
Boys,67.13,10,Dekendrick Houston,Jasper,67.13,108.86,83.91,142.88,335.66,Single-ply,SBD,M
Boys,67.13,11,Jarvis Horton,Jasper,67.13,108.86,77.11,145.15,331.12,Single-ply,SBD,M
Boys,67.13,12,Cadelro Frank,Kirbyville,63.05,113.4,63.5,124.74,301.64,Single-ply,SBD,M
Boys,67.13,13,Daniel Wade #4,Kirbyville,67.13,92.99,70.31,120.2,283.5,Single-ply,SBD,M
Boys,67.13,14,Dakota Jordan,Kirbyville,61.23,92.99,61.23,124.74,278.96,Single-ply,SBD,M
Boys,67.13,15,Chauncey Scott,Jasper,67.13,108.86,58.97,,167.83,Single-ply,SB,M
Boys,74.84,1,Jace Thomas,Newton,74.84,204.12,136.08,233.6,573.79,Single-ply,SBD,M
Boys,74.84,2,Calvin Thomas,Jasper,74.39,147.42,77.11,154.22,378.75,Single-ply,SBD,M
Boys,74.84,3,Matthew Peveto,Newton,74.84,136.08,70.31,170.1,376.48,Single-ply,SBD,M
Boys,74.84,4,Quinton Williams,Jasper,69.4,120.2,88.45,161.03,369.68,Single-ply,SBD,M
Boys,74.84,5,Jordan Holsonback,Kirbyville,70.31,122.47,79.38,158.76,360.61,Single-ply,SBD,M
Boys,74.84,6,Tyler Ebner,Kirbyville,72.57,142.88,70.31,145.15,358.34,Single-ply,SBD,M
Boys,74.84,7,O'Keith Johnson,Jasper,72.12,111.13,74.84,156.49,342.46,Single-ply,SBD,M
Boys,74.84,8,Jakeithan Adams,Jasper,68.49,102.06,68.04,147.42,317.51,Single-ply,SBD,M
Boys,74.84,9,Hayden Frederick,Kirbyville,73.48,115.67,74.84,127.01,317.51,Single-ply,SBD,M
Boys,74.84,10,Raine Hippler,Jasper,74.84,102.06,70.31,138.35,310.71,Single-ply,SBD,M
Boys,74.84,11,Austin Walker,Jasper,68.04,97.52,61.23,117.93,276.69,Single-ply,SBD,M
Boys,74.84,12,Cameron Brewster,Kirbyville,71.21,102.06,52.16,117.93,272.16,Single-ply,SBD,M
Boys,74.84,13,Lucas Walker,Jasper,73.03,113.4,,,113.4,Single-ply,S,M
Boys,74.84,DQ,Larry Rawls,Jasper,72.12,,,,,Single-ply,S,M
Boys,82.1,1,Brandon Johnson,Newton,80.29,249.48,136.08,256.28,641.83,Single-ply,SBD,M
Boys,82.1,2,Bradley Arnold,Buna,79.83,197.31,154.22,204.12,555.65,Single-ply,SBD,M
Boys,82.1,3,Markeith Cauley,Jasper,80.74,192.78,129.27,204.12,526.17,Single-ply,SBD,M
Boys,82.1,4,John Kirbow,Kirbyville,82.1,163.29,92.99,174.63,430.91,Single-ply,SBD,M
Boys,82.1,5,Dalton Phillips,Kirbyville,77.11,136.08,83.91,167.83,387.82,Single-ply,SBD,M
Boys,82.1,6,Steve Walker,Jasper,81.65,136.08,90.72,158.76,385.55,Single-ply,SBD,M
Boys,82.1,DQ,Jayson London,Jasper,79.38,,,,,Single-ply,SBD,M
Boys,89.81,1,Ty Tamplin,Buna,88.9,242.67,142.88,235.87,621.42,Single-ply,SBD,M
Boys,89.81,2,Chedrick Hanks,Newton,87.54,204.12,142.88,229.06,576.06,Single-ply,SBD,M
Boys,89.81,3,Zack Conner,Newton,87.54,199.58,115.67,226.8,542.04,Single-ply,SBD,M
Boys,89.81,4,Blaine Rhodes,Kirbyville,86.64,174.63,86.18,192.78,453.59,Single-ply,SBD,M
Boys,89.81,5,Cody Mitchell,Jasper,87.09,133.81,104.33,183.7,421.84,Single-ply,SBD,M
Boys,89.81,6,Nethanial Martinez,Jasper,84.82,133.81,86.18,158.76,378.75,Single-ply,SBD,M
Boys,89.81,7,Dillon Kroner,Kirbyville,83.91,151.95,,167.83,319.78,Single-ply,SD,M
Boys,99.79,1,Terrence Cuney,Jasper,94.35,231.33,161.03,249.48,641.83,Single-ply,SBD,M
Boys,99.79,2,Nick Rhame,Buna,97.98,204.12,138.35,183.7,526.17,Single-ply,SBD,M
Boys,99.79,3,Trea'Von Davis,Newton,93.44,183.7,124.74,167.83,476.27,Single-ply,SBD,M
Boys,99.79,4,Daylen Nichols,Kirbyville,97.98,183.7,102.06,151.95,437.72,Single-ply,SBD,M
Boys,99.79,5,Lavarris Carter,Jasper,98.43,138.35,83.91,161.03,383.29,Single-ply,SBD,M
Boys,99.79,6,Keenan Myers,Newton,92.99,142.88,88.45,129.27,360.61,Single-ply,SBD,M
Boys,99.79,7,Leonard Wysingle,Jasper,90.72,106.59,56.7,124.74,288.03,Single-ply,SBD,M
Boys,99.79,8,Garrett Morgan,Kirbyville,97.52,97.52,56.7,113.4,267.62,Single-ply,SBD,M
Boys,99.79,9,Bradley Hardin,Jasper,96.62,86.18,63.5,113.4,263.08,Single-ply,SBD,M
Boys,99.79,DQ,Robert Woods,Newton,94.8,165.56,165.56,167.83,,Single-ply,SBD,M
Boys,109.77,1,Shawn Jones,Jasper,102.06,244.94,151.95,249.48,646.37,Single-ply,SBD,M
Boys,109.77,2,Anthony Orr-Wade,Jasper,108.86,195.04,140.61,204.12,539.77,Single-ply,SBD,M
Boys,109.77,3,Kevin Houston,Jasper,106.59,195.04,127.01,199.58,521.63,Single-ply,SBD,M
Boys,109.77,4,Jarrod Brooks,Kirbyville,106.14,172.37,99.79,192.78,464.93,Single-ply,SBD,M
Boys,109.77,5,William Simmons,Newton,101.15,170.1,104.33,183.7,458.13,Single-ply,SBD,M
Boys,109.77,6,Jordan Garms,Buna,109.77,170.1,77.11,172.37,419.57,Single-ply,SBD,M
Boys,109.77,7,Daniel Caldwell,Jasper,103.87,142.88,86.18,165.56,394.63,Single-ply,SBD,M
Boys,109.77,8,Tyler Martin,Kirbyville,100.7,142.88,92.99,142.88,378.75,Single-ply,SBD,M
Boys,109.77,9,Zach Fairchild,Kirbyville,106.59,149.69,79.38,149.69,378.75,Single-ply,SBD,M
Boys,109.77,DQ,Joshua London,Jasper,108.86,,,,,Single-ply,SBD,M
Boys,109.77,DQ,Paul Szemborski,Newton,108.41,,,,,Single-ply,SBD,M
Boys,124.74,1,Dalton Ford,Buna,113.4,281.23,156.49,292.57,730.28,Single-ply,SBD,M
Boys,124.74,2,Dave Lewis,Newton,115.67,206.38,142.88,206.38,555.65,Single-ply,SBD,M
Boys,124.74,3,Terrell Cuney,Jasper,117.93,192.78,113.4,226.8,532.97,Single-ply,SBD,M
Boys,124.74,4,Brent Simmons,Newton,124.74,170.1,97.52,190.51,458.13,Single-ply,SBD,M
Boys,124.74,5,Jason Cochran,Newton,120.2,170.1,92.99,165.56,428.64,Single-ply,SBD,M
Boys,124.74,6,Michael Matthews,Newton,114.31,147.42,102.06,147.42,396.89,Single-ply,SBD,M
Boys,124.74,7,Cody Cook,Kirbyville,113.4,142.88,90.72,142.88,376.48,Single-ply,SBD,M
Boys,124.74,8,Caleb Smith,Newton,119.75,131.54,90.72,142.88,365.14,Single-ply,SBD,M
Boys,124.74,9,Emmanuel Hadnot,Jasper,122.47,142.88,86.18,111.13,340.19,Single-ply,SBD,M
Boys,124.74,DQ,Kanija Rollins,Jasper,117.93,,,,,Single-ply,SBD,M
Boys,124.74+,1,Garrett Jarrell,Buna,146.06,272.16,154.22,258.55,684.92,Single-ply,SBD,M
Boys,124.74+,2,Ashton Limbrick,Jasper,127.01,226.8,140.61,254.01,621.42,Single-ply,SBD,M
Boys,124.74+,3,Tyandre Cooper,Kirbyville,129.73,174.63,124.74,183.7,483.08,Single-ply,SBD,M
Boys,124.74+,4,Trent Smith,Kirbyville,125.65,136.08,113.4,154.22,403.7,Single-ply,SBD,M
Boys,124.74+,5,Zach Quick,Jasper,138.35,145.15,102.06,154.22,401.43,Single-ply,SBD,M
Boys,124.74+,6,Tommy Jones,Buna,142.88,117.93,83.91,158.76,360.61,Single-ply,SBD,M
Boys,124.74+,7,Ethan Cole,Kirbyville,136.98,127.01,83.91,145.15,356.07,Single-ply,SBD,M
