Division,WeightClassKg,Place,Name,Team,BodyweightKg,Best3SquatKg,Best3BenchKg,Best3DeadliftKg,TotalKg,Equipment,Event,Sex
Boys,51.71,1,Antonio Ponce,Glen Rose,51.44,127.01,70.31,154.22,351.53,Single-ply,SBD,M
Boys,51.71,2,Marco Sandate,San Angelo Lake View,51.35,97.52,72.57,133.81,303.91,Single-ply,SBD,M
Boys,51.71,3,Julian Coronado,San Saba,50.98,104.33,63.5,133.81,301.64,Single-ply,SBD,M
Boys,51.71,4,Peyton Johnson,San Saba,51.07,102.06,56.7,127.01,285.76,Single-ply,SBD,M
Boys,51.71,5,Kyle Jaynes,Rising Star,51.71,106.59,61.23,113.4,281.23,Single-ply,SBD,M
Boys,55.79,6,Angel Sandoval,Brady,51.89,99.79,49.9,90.72,240.4,Single-ply,SBD,M
Boys,51.71,7,Antonio Barron,San Angelo Lake View,48.08,65.77,34.02,90.72,190.51,Single-ply,SBD,M
Boys,51.71,8,Garrett Schwertner,Brady,48.26,81.65,36.29,72.57,190.51,Single-ply,SBD,M
Boys,55.79,1,Nimo Vega,San Saba,55.34,151.95,83.91,176.9,412.77,Single-ply,SBD,M
Boys,59.87,2,Azahel Herrera,Glen Rose,55.97,133.81,97.52,158.76,390.09,Single-ply,SBD,M
Boys,55.79,3,Cesar Herrera,Glen Rose,53.98,131.54,77.11,140.61,349.27,Single-ply,SBD,M
Boys,59.87,4,José Cortés,Dublin,55.88,83.91,61.23,111.13,256.28,Single-ply,SBD,M
Boys,59.87,1,Richie Pina,Comanche,59.24,172.37,106.59,197.31,476.27,Single-ply,SBD,M
Boys,59.87,2,Dalton Zinck,Dublin,59.15,165.56,83.91,149.69,399.16,Single-ply,SBD,M
Boys,59.87,3,Dorian Jimenez,Brady,59.78,136.08,81.65,165.56,383.29,Single-ply,SBD,M
Boys,59.87,4,Derrick McBee,Brady,59.69,133.81,77.11,151.95,362.87,Single-ply,SBD,M
Boys,59.87,5,Daniel Rodriguez,Dublin,56.79,90.72,65.77,120.2,276.69,Single-ply,SBD,M
Boys,67.13,1,Walker Shelton,Tolar,66.68,190.51,106.59,201.85,498.95,Single-ply,SBD,M
Boys,74.84,2,Armando Aguilar,Gustine,67.31,161.03,108.86,174.63,444.52,Single-ply,SBD,M
Boys,67.13,3,Nathan Smith #9,Glen Rose,67.13,158.76,99.79,172.37,430.91,Single-ply,SBD,M
Boys,67.13,4,Jesse Franco,San Saba,63.78,145.15,90.72,181.44,417.3,Single-ply,SBD,M
Boys,67.13,5,Justus Alaniz,Lometa,61.23,136.08,90.72,158.76,385.55,Single-ply,SBD,M
Boys,67.13,6,Joseph Alcala,San Angelo Lake View,65.95,122.47,83.91,170.1,376.48,Single-ply,SBD,M
Boys,67.13,7,Jason Kirkland,Brady,60.69,115.67,61.23,154.22,331.12,Single-ply,SBD,M
Boys,74.84,8,Stone Sealy,San Saba,67.31,113.4,65.77,145.15,324.32,Single-ply,SBD,M
Boys,67.13,9,Cecil Peck,Hamilton,63.05,117.93,61.23,136.08,315.25,Single-ply,SBD,M
Boys,67.13,10,Ty Pauly,Lometa,61.42,104.33,63.5,127.01,294.84,Single-ply,SBD,M
Boys,67.13,DQ,Juan Tovias,San Saba,63.96,,61.23,90.72,,Single-ply,SBD,M
Boys,67.13,DQ,Fabian Zuniga,Comanche,67.13,,88.45,145.15,,Single-ply,SBD,M
Boys,74.84,1,Hunter Redmond,Glen Rose,74.39,188.24,106.59,208.65,503.49,Single-ply,SBD,M
Boys,74.84,2,Nathan Langston,Tolar,74.39,192.78,111.13,199.58,503.49,Single-ply,SBD,M
Boys,74.84,3,Trevor Crawford,Glen Rose,72.12,181.44,113.4,195.04,489.88,Single-ply,SBD,M
Boys,74.84,4,Cp Aguilera,San Angelo Lake View,73.48,188.24,106.59,195.04,489.88,Single-ply,SBD,M
Boys,74.84,5,Jesse Luker,Comanche,70.49,181.44,113.4,190.51,485.34,Single-ply,SBD,M
Boys,82.1,6,Hayden Swearengin,Glen Rose,74.93,176.9,113.4,181.44,471.74,Single-ply,SBD,M
Boys,74.84,7,Fidel Perez,Dublin,73.57,183.7,106.59,165.56,455.86,Single-ply,SBD,M
Boys,74.84,8,Gary Flores,Brady,73.48,199.58,99.79,136.08,435.45,Single-ply,SBD,M
Boys,74.84,9,Mark DeLeon,Brady,69.04,167.83,86.18,165.56,419.57,Single-ply,SBD,M
Boys,74.84,10,Zach Gartman,Cross Plains,70.4,167.83,74.84,167.83,410.5,Single-ply,SBD,M
Boys,74.84,11,Chase Walston,Brady,70.67,158.76,90.72,158.76,408.23,Single-ply,SBD,M
Boys,74.84,12,Marcus Garcia,Tolar,74.39,145.15,90.72,149.69,385.55,Single-ply,SBD,M
Boys,74.84,13,Ryan Gaitan,Dublin,72.21,120.2,74.84,120.2,315.25,Single-ply,SBD,M
Boys,82.1,14,Parker Hallmark,Lingleville,74.93,104.33,74.84,122.47,301.64,Single-ply,SBD,M
Boys,74.84,15,James Briggs,Cross Plains,71.58,113.4,68.04,108.86,290.3,Single-ply,SBD,M
Boys,74.84,DQ,Ryder Clegg,San Saba,67.59,131.54,,156.49,,Single-ply,SBD,M
Boys,82.1,1,Saul Lopez,Comanche,80.38,215.46,133.81,226.8,576.06,Single-ply,SBD,M
Boys,82.1,2,Travis Hickman,Comanche,79.47,181.44,102.06,185.97,469.47,Single-ply,SBD,M
Boys,82.1,3,Dalton Gilliam,Cross Plains,82.1,165.56,102.06,172.37,439.98,Single-ply,SBD,M
Boys,82.1,4,Izmiel Torres,Dublin,79.83,151.95,97.52,181.44,430.91,Single-ply,SBD,M
Boys,82.1,5,Tristan Peck,Hamilton,77.56,165.56,92.99,170.1,428.64,Single-ply,SBD,M
Boys,82.1,6,Jose Martinez,Rising Star,76.66,145.15,92.99,161.03,399.16,Single-ply,SBD,M
Boys,82.1,7,Brenden Pando,San Angelo Lake View,78.93,124.74,86.18,136.08,347,Single-ply,SBD,M
Boys,82.1,8,Elton Galbreath,Dublin,79.38,124.74,70.31,147.42,342.46,Single-ply,SBD,M
Boys,82.1,9,Lane Coleman,Brady,76.66,102.06,54.43,97.52,254.01,Single-ply,SBD,M
Boys,89.81,1,Rudy Rodriguez,Dublin,85.73,226.8,120.2,206.38,553.38,Single-ply,SBD,M
Boys,89.81,2,Dawson Matheny,Glen Rose,89.36,181.44,127.01,213.19,521.63,Single-ply,SBD,M
Boys,89.81,3,Damian Hatcher,Dublin,85.73,181.44,120.2,181.44,483.08,Single-ply,SBD,M
Boys,89.81,4,Isaiah Regeon,Brady,89.81,172.37,102.06,158.76,433.18,Single-ply,SBD,M
Boys,89.81,5,Brian Riggs,San Saba,86.64,154.22,102.06,172.37,428.64,Single-ply,SBD,M
Boys,89.81,6,Nain Martinez,Cross Plains,86.18,167.83,86.18,136.08,390.09,Single-ply,SBD,M
Boys,89.81,7,Sam Johnson,Hamilton,84.82,136.08,68.04,113.4,317.51,Single-ply,SBD,M
Boys,89.81,DQ,James Morgan,Comanche,86.73,156.49,,181.44,,Single-ply,SBD,M
Boys,89.81,DQ,Alonso Barrera,Comanche,88.27,,,124.74,,Single-ply,SBD,M
Boys,89.81,DQ,Gordon Lewis,Tolar,83.46,,108.86,197.31,,Single-ply,SBD,M
Boys,99.79,1,Heath Nicholson,Glen Rose,97.52,238.14,127.01,272.16,637.3,Single-ply,SBD,M
Boys,99.79,2,Aaron Platt,Tolar,97.52,224.53,151.95,219.99,596.47,Single-ply,SBD,M
Boys,99.79,3,Gio Galindo,San Angelo Lake View,97.07,206.38,145.15,233.6,585.13,Single-ply,SBD,M
Boys,99.79,4,Ambrosio Rodriguez,Dublin,98.43,222.26,120.2,226.8,569.26,Single-ply,SBD,M
Boys,99.79,5,Braxton Barrios,Glen Rose,98.43,222.26,136.08,192.78,551.11,Single-ply,SBD,M
Boys,99.79,6,Ismael Ramirez,Gustine,97.52,195.04,127.01,213.19,535.24,Single-ply,SBD,M
Boys,99.79,7,Miguel Barraza,Glen Rose,93.44,204.12,131.54,190.51,526.17,Single-ply,SBD,M
Boys,99.79,8,Cody Wilson,Hamilton,99.34,181.44,104.33,181.44,467.2,Single-ply,SBD,M
Boys,99.79,9,Zach Thompson,Cross Plains,98.88,172.37,79.38,140.61,392.36,Single-ply,SBD,M
Boys,99.79,10,Noah Johnson,San Angelo Lake View,93.89,151.95,79.38,158.76,390.09,Single-ply,SBD,M
Boys,99.79,11,David Luera,San Angelo Lake View,91.17,136.08,77.11,167.83,381.02,Single-ply,SBD,M
Boys,99.79,DQ,Weston Conine,Comanche,95.07,158.76,,154.22,,Single-ply,SBD,M
Boys,109.77,1,Kirkland Weaver,Brady,106.59,254.01,120.2,219.99,594.21,Single-ply,SBD,M
Boys,109.77,2,Ethan Wagner,Hamilton,103.42,188.24,92.99,181.44,462.66,Single-ply,SBD,M
Boys,124.74,1,Marshall Wirtz,Comanche,113.76,190.51,124.74,199.58,514.83,Single-ply,SBD,M
Boys,124.74,2,Ruben Magallan,San Angelo Lake View,117.03,181.44,122.47,185.97,489.88,Single-ply,SBD,M
Boys,124.74,3,Gunner Bradley,Lometa,114.31,170.1,102.06,158.76,430.91,Single-ply,SBD,M
Boys,124.74+,1,Elijah Davis,San Angelo Lake View,143.34,181.44,95.25,185.97,462.66,Single-ply,SBD,M
Boys,124.74+,2,Bryan Boyle,San Angelo Lake View,146.96,129.27,88.45,117.93,335.66,Single-ply,SBD,M
