Name,Sex,BirthDate,Age,Division,Tested,Equipment,BodyweightKg,WeightClassKg,Squat1Kg,Squat2Kg,Squat3Kg,Best3SquatKg,Bench1Kg,Bench2Kg,Bench3Kg,Best3BenchKg,Deadlift1Kg,Deadlift2Kg,Deadlift3Kg,Best3DeadliftKg,TotalKg,Event,Place,Country
Francesca Dennis,F,,23,F_J_R_BPU,,Raw,74.9,75,,,,,-65,,70,70,,,,,70,B,1,
Nicola Vaughan-Ellis,F,,56,F_M4_R_ABPU,Yes,Raw,103.1,90+,,,,,40,42.5,45,45,,,,,45,B,1,
Pamela Fellows,F,,30,F_O_R_ABPU,Yes,Raw,73.55,75,,,,,77.5,85,-90,85,,,,,85,B,1,
Marianne Kosonen,F,,25,F_O_M_BPU,,Multi-ply,57.2,60,,,,,140,150,155,155,,,,,155,B,G,Finland
Chloe Price,F,,,F_O_R_ABPU,Yes,Raw,61.2,67.5,,,,,60,62.5,-65,62.5,,,,,62.5,B,1,
Viv Dickinson,F,,37,F_O_R_ABPU,Yes,Raw,88.75,90,,,,,67.5,-72.5,-72.5,67.5,,,,,67.5,B,1,
Erin Cartwright,F,,28,F_O_R_ABPU,Yes,Raw,106.75,90+,,,,,80,90,-100,90,,,,,90,B,2,
Robyn Vaughan,F,,27,F_O_R_ABPU,Yes,Raw,95.75,90+,,,,,82.5,-87.5,92.5,92.5,,,,,92.5,B,1,
Catherine Croydon,F,,28,F_O_R_BPU,,Raw,84.8,90,,,,,120,130,137.5,137.5,,,,,137.5,B,1,
Catherine Donnelly,F,,25,F_O_R_BPU,,Raw,91.7,90+,,,,,120,-125,-125,120,,,,,120,B,2,
Nicola Goodwill,F,,37,F_O_R_BPU,,Raw,97.7,90+,,,,,125,132.5,-140,132.5,,,,,132.5,B,1,
Francesca Dennis,F,,23,F_J_R_BPU,,Raw,74.9,75,,,,,,,,,135,140,145,145,145,D,1,
Sal Lack,F,,42,F_M1_R_ABPU,Yes,Raw,89,90,,,,,,,,,115,125,-130,125,125,D,1,
Lisa Johnston,F,,46,F_M2_R_ABPU,Yes,Raw,77.45,82.5,,,,,,,,,140,150,-162.5,150,150,D,1,
Nicola Vaughan-Ellis,F,,56,F_M4_R_ABPU,Yes,Raw,103.1,90+,,,,,,,,,95,105,110,110,110,D,1,
Diane Leach,F,,60,F_M5_R_ABPU,Yes,Raw,109.25,90+,,,,,,,,,105,115,120,120,120,D,1,
Jemma Stubbington,F,,30,F_O_R_ABPU,Yes,Raw,78.65,82.5,,,,,,,,,155,170,180,180,180,D,1,
Jody Pritchard,F,,,F_O_R_ABPU,Yes,Raw,60,60,,,,,,,,,,,,,,D,NS,
Claire Comiskey,F,,36,F_O_R_ABPU,Yes,Raw,69,75,,,,,,,,,140,152.5,-157.5,152.5,152.5,D,1,
Erin Cartwright,F,,28,F_O_R_ABPU,Yes,Raw,106.75,90+,,,,,,,,,180,190,-195,190,190,D,1,
Catherine Donnelly,F,,25,F_O_R_BPU,,Raw,91.7,90+,,,,,,,,,200,210,-215,210,210,D,2,
Nicola Goodwill,F,,37,F_O_R_BPU,,Raw,97.7,90+,,,,,,,,,210,220,227.5,227.5,227.5,D,1,
Kayleigh Morris,F,,18,F_T3_R_ABPU,Yes,Raw,89.1,90,,,,,,,,,95,107.5,112.5,112.5,112.5,D,1,
Jodie Davies,F,,23,F_J_CR_ABPU,Yes,Wraps,47.55,48,85,90,-95,90,50,52.5,55,55,105,-115,115,115,260,SBD,1,
Valerija Aliochina,F,,23,F_J_CR_ABPU,Yes,Wraps,51.4,52,90,95,-100,95,47.5,-55,55,55,90,97.5,100,100,250,SBD,1,
Samantha Taylor,F,,23,F_J_CR_ABPU,Yes,Wraps,58.75,60,95,105,-112.5,105,40,-45,-45,40,110,115,120,120,265,SBD,3,
Alice Swain,F,,22,F_J_CR_ABPU,Yes,Wraps,58.85,60,92.5,97.5,100,100,52.5,57.5,-60,57.5,115,120,125,125,282.5,SBD,2,
Jessica Pallot,F,,23,F_J_CR_ABPU,Yes,Wraps,58.4,60,110,120,125,125,65,-70,70,70,132.5,140,-145,140,335,SBD,1,
Sophie Fuller,F,,23,F_J_CR_ABPU,Yes,Wraps,63.7,67.5,100,-105,107.5,107.5,55,60,62.5,62.5,125,132.5,140,140,310,SBD,1,
Meg Boorman,F,,,F_J_CR_ABPU,Yes,Wraps,75,75,,,,,,,,,,,,,,SBD,NS,
Leah Robson,F,,,F_J_CR_BPU,,Wraps,67.5,67.5,,,,,,,,,,,,,,SBD,NS,
Monica Hofvind,F,,22,F_J_CR_BPU,,Wraps,81.45,82.5,110,120,-125,120,65,-70,-70,65,130,-140,-145,130,315,SBD,1,
Lauren Aitchison,F,,22,F_J_CR_BPU,,Wraps,89.3,90,140,160,,160,60,70,-75,70,140,160,-170,160,390,SBD,1,
Gioia Rossini,F,,,F_J_R_ABPU,Yes,Raw,48,48,,,,,,,,,,,,,,SBD,NS,
Jenny Davies,F,,23,F_J_R_ABPU,Yes,Raw,72.25,75,102.5,107.5,-112.5,107.5,52.5,-57.5,-57.5,52.5,112.5,117.5,-120,117.5,277.5,SBD,1,
Aline Aronsky,F,,,F_J_R_ABPU,Yes,Raw,75,75,,,,,,,,,,,,,,SBD,NS,
Nicola Swain,F,,41,F_M1_CR_ABPU,Yes,Wraps,59.7,60,115,125,130,130,67.5,70,-72.5,70,135,145,150,150,350,SBD,1,
Victoria Savage,F,,42,F_M1_CR_ABPU,Yes,Wraps,68.75,75,127.5,137.5,147.5,147.5,57.5,60,62.5,62.5,80,100,105,105,315,SBD,1,
Cleary Clifford,F,,43,F_M1_CR_ABPU,Yes,Wraps,81.4,82.5,100,105,107.5,107.5,47.5,-50,-50,47.5,125,130,,130,285,SBD,1,
Bernadette Cuninghame,F,,,F_M1_CR_ABPU,Yes,Wraps,90,90,,,,,,,,,,,,,,SBD,NS,
Julia Mills,F,,40,F_M1_CR_BPU,,Wraps,67.1,67.5,160,170,-180,170,100,-107.5,-107.5,100,190,-200,-205,190,460,SBD,1,
Charlotte Bogh,F,,42,F_M1_R_ABPU,Yes,Raw,57.35,60,-50,50,60,60,30,37.5,-40,37.5,80,90,95,95,192.5,SBD,1,
Aneela Rose,F,,47,F_M2_CR_ABPU,Yes,Wraps,55.45,56,87.5,92.5,95,95,50,-55,-55,50,105,112.5,120,120,265,SBD,1,
Nia Golding,F,,48,F_M2_CR_ABPU,Yes,Wraps,59.35,60,-90,90,-100,90,50,55,-60,55,155,165,-180,165,310,SBD,1,
Shan Passmore,F,,48,F_M2_CR_ABPU,Yes,Wraps,64.14,67.5,-120,120,-130,120,-55,55,60,60,155,160,-162.5,160,340,SBD,1,
Wendy Rees,F,,46,F_M2_R_ABPU,Yes,Raw,52.95,56,75,85,-90,85,50,55,-57.5,55,100,110,-115,110,250,SBD,1,
Melanie Cuff,F,,46,F_M2_R_ABPU,Yes,Raw,59.05,60,80,90,-100,90,40,-45,-45,40,100,110,115,115,245,SBD,1,
Lisa Johnston,F,,46,F_M2_R_ABPU,Yes,Raw,77.45,82.5,-100,105,-110,105,-65,-65,-65,,140,150,-162.5,150,,SBD,DQ,
Debbie Harding,F,,47,F_M2_R_ABPU,Yes,Raw,88.1,90,-95,-105,-105,,52.5,55,-57.5,55,115,125,130,130,,SBD,DQ,
Mo Proctor,F,,52,F_M3_CR_ABPU,Yes,Wraps,88.35,90,100,110,-120,110,70,-75,-75,70,130,140,-145,140,320,SBD,1,
Bernie Quinn,F,,52,F_M3_R_ABPU,Yes,Raw,59.15,60,72.5,77.5,-82.5,77.5,37.5,40,-42.5,40,117.5,125,127.5,127.5,245,SBD,1,
Bev Johnson,F,,54,F_M3_R_ABPU,Yes,Raw,66.45,67.5,70,77.5,-82.5,77.5,50,-55,55,55,100,110,112.5,112.5,245,SBD,2,
Diana Chimhundu,F,,54,F_M3_R_ABPU,Yes,Raw,66.2,67.5,95,100,105,105,45,47.5,50,50,130,137.5,140,140,295,SBD,1,
Christine Clark,F,,51,F_M3_R_ABPU,Yes,Raw,73.45,75,80,-90,90,90,45,-52.5,-52.5,45,122.5,-132.5,-135,122.5,257.5,SBD,2,
Audra Corbett,F,,51,F_M3_R_ABPU,Yes,Raw,73.45,75,90,100,-105,100,60,70,75,75,100,120,135,135,310,SBD,1,
Ann Votsikas,F,,54,F_M3_R_ABPU,Yes,Raw,81.15,82.5,80,90,97.5,97.5,55,60,-65,60,140,150,-157.5,150,307.5,SBD,1,
Allison Hough,F,,53,F_M3_S_ABPU,Yes,Single-ply,58.55,60,125,140,150,150,82.5,87.5,-90,87.5,125,135,145,145,382.5,SBD,1,
Parminder Jutla,F,,,F_M4_CR_ABPU,Yes,Wraps,90,90,,,,,,,,,,,,,,SBD,NS,
Pauline Dolan,F,,61,F_M5_CR_ABPU,Yes,Wraps,81.85,82.5,-85,95,102.5,102.5,50,55,-60,55,110,125,135,135,292.5,SBD,1,
Sandra Coombes,F,,70,F_M7_CR_ABPU,Yes,Wraps,76.2,82.5,55,62.5,-67.5,62.5,40,-45,45,45,85,92.5,100,100,207.5,SBD,1,
Anna Eggleton,F,,34,F_O_CR_ABPU,Yes,Wraps,51.2,52,110,117.5,122.5,122.5,57.5,62.5,67.5,67.5,127.5,137.5,142.5,142.5,332.5,SBD,1,
Lexy Cattermole,F,,,F_O_CR_ABPU,Yes,Wraps,52,52,,,,,,,,,,,,,,SBD,NS,
Rebecca Brown,F,,,F_O_CR_ABPU,Yes,Wraps,52,52,,,,,,,,,,,,,,SBD,NS,
Louise Kirby,F,,26,F_O_CR_ABPU,Yes,Wraps,59.35,60,130,-137.5,137.5,137.5,55,60,-62.5,60,130,-137.5,-137.5,130,327.5,SBD,2,
Carly Lawes,F,,33,F_O_CR_ABPU,Yes,Wraps,58.5,60,110,117.5,120,120,67.5,72.5,75,75,-150,150,157.5,157.5,352.5,SBD,1,
Chelsie Andrews,F,,25,F_O_CR_ABPU,Yes,Wraps,62.55,67.5,95,107.5,110,110,50,55,-60,55,95,107.5,115,115,280,SBD,5,
Sara Bradley,F,,32,F_O_CR_ABPU,Yes,Wraps,65.8,67.5,120,130,135,135,60,62.5,65,65,120,132.5,-137.5,132.5,332.5,SBD,4,
Kate Skelley,F,,30,F_O_CR_ABPU,Yes,Wraps,66.05,67.5,110,115,122.5,122.5,55,60,62.5,62.5,135,145,152.5,152.5,337.5,SBD,3,
Amanda Hillary,F,,32,F_O_CR_ABPU,Yes,Wraps,66.6,67.5,155,-165,-165,155,65,-67.5,-67.5,65,145,160,-162.5,160,380,SBD,2,
Amanda Gisby,F,,37,F_O_CR_ABPU,Yes,Wraps,64.8,67.5,150,160,-165,160,60,-65,-65,60,150,160,-162.5,160,380,SBD,1,
Katie Cornish,F,,,F_O_CR_ABPU,Yes,Wraps,67.5,67.5,,,,,,,,,,,,,,SBD,NS,
Sheryl Morris,F,,31,F_O_CR_ABPU,Yes,Wraps,66.15,67.5,30,,,30,-55,-55,,,127.5,132.5,140,140,,SBD,DQ,
Alexandra Morrell,F,,34,F_O_CR_ABPU,Yes,Wraps,65.9,67.5,95,100,-105,100,50,55,-60,55,,,,,,SBD,DQ,
Marie-Anne Thomas,F,,33,F_O_CR_ABPU,Yes,Wraps,72.1,75,90,-100,100,100,40,45,-50,45,105,112.5,117.5,117.5,262.5,SBD,7,
Becca Lundberg,F,,36,F_O_CR_ABPU,Yes,Wraps,73.55,75,80,90,100,100,50,52.5,55,55,105,115,120,120,275,SBD,6,
Ashleigh Smedley,F,,24,F_O_CR_ABPU,Yes,Wraps,72.35,75,105,115,120,120,50,55,-60,55,115,120,130,130,305,SBD,5,
Laura Smith #1,F,,37,F_O_R_ABPU,Yes,Raw,72.1,75,120,130,140,140,67.5,72.5,77.5,77.5,150,165,-172.5,165,382.5,SBD,1,
Donna Baxter-Phillips,F,,30,F_O_CR_ABPU,Yes,Wraps,71.9,75,122.5,130,137.5,137.5,67.5,75,77.5,77.5,145,155,167.5,167.5,382.5,SBD,4,
Lucinda Stansfield,F,,30,F_O_CR_ABPU,Yes,Wraps,74.45,75,160,180,-200,180,65,70,-75,70,152.5,162.5,-170,162.5,412.5,SBD,3,
Nicola Burroughs,F,,35,F_O_CR_ABPU,Yes,Wraps,72.4,75,145,155,160,160,77.5,80,82.5,82.5,165,177.5,182.5,182.5,425,SBD,2,
Scarlett Portues,F,,27,F_O_CR_ABPU,Yes,Wraps,74.25,75,165,-180,180,180,85,90,92.5,92.5,160,170,172.5,172.5,445,SBD,1,
Rachael Laughton,F,,35,F_O_CR_ABPU,Yes,Wraps,82.45,82.5,90,-100,-100,90,60,62.5,-65,62.5,115,-120,-120,115,267.5,SBD,4,
Sainabou Joof,F,,26,F_O_CR_ABPU,Yes,Wraps,76.35,82.5,112.5,117.5,120,120,55,57.5,60,60,147.5,157.5,162.5,162.5,342.5,SBD,3,
Fay Northcott,F,,26,F_O_CR_ABPU,Yes,Wraps,82,82.5,152.5,162.5,-172.5,162.5,70,72.5,,72.5,172.5,-182.5,-182.5,172.5,407.5,SBD,2,
Learna Lee,F,,33,F_O_CR_ABPU,Yes,Wraps,81.85,82.5,165,170,-172.5,170,85,90,95,95,160,170,-175,170,435,SBD,1,
Viv Dickinson,F,,37,F_O_CR_ABPU,Yes,Wraps,88.75,90,127.5,135,147.5,147.5,67.5,-72.5,-72.5,67.5,117.5,125,-130,125,340,SBD,1,
Sherie Reed,F,,39,F_O_CR_ABPU,Yes,Wraps,98.45,90+,110,120,130,130,60,65,72.5,72.5,130,142.5,-155,142.5,345,SBD,5,
Jenni Crimmins,F,,28,F_O_CR_ABPU,Yes,Wraps,138.1,90+,135,142.5,147.5,147.5,75,82.5,87.5,87.5,150,157.5,165,165,400,SBD,4,
Joanne Wainwright,F,,39,F_O_CR_ABPU,Yes,Raw,123.85,90+,145,155,-165,155,60,67.5,-72.5,67.5,177.5,185,192.5,192.5,415,SBD,3,
Kadie Crichton,F,,26,F_O_CR_ABPU,Yes,Wraps,111.65,90+,170,180,-190,180,67.5,72.5,77.5,77.5,165,175,180,180,437.5,SBD,2,
Amie Walters,F,,25,F_O_CR_ABPU,Yes,Wraps,112.8,90+,180,-190,190,190,70,72.5,-75,72.5,190,-200,-200,190,452.5,SBD,1,
Erin Cartwright,F,,28,F_O_CR_ABPU,Yes,Wraps,106.75,90+,-190,-190,,,80,90,-100,90,180,190,-195,190,,SBD,DQ,
Jessica Lane,F,,,F_O_CR_BPU,,Wraps,52,52,,,,,,,,,,,,,,SBD,NS,
Anna Fyodorova,F,,25,F_O_CR_BPU,,Wraps,55.8,56,135,145,-150,145,62.5,67.5,70,70,115,125,-132.5,125,340,SBD,1,
Kara Shaw,F,,31,F_O_CR_BPU,,Wraps,66,67.5,92.5,100,105,105,55,60,62.5,62.5,135,-142.5,-142.5,135,302.5,SBD,1,
Hailie Slack,F,,30,F_O_CR_BPU,,Wraps,80.65,82.5,180,190,200,200,105,112.5,115,115,185,200,-205,200,515,SBD,1,
Dawn Birchall,F,,32,F_O_CR_BPU,,Wraps,89.65,90,95,105,115,115,52.5,57.5,-60,57.5,115,125,132.5,132.5,305,SBD,2,
Gemma Marks,F,,36,F_O_CR_BPU,,Wraps,88,90,202.5,217.5,,217.5,100,107.5,112.5,112.5,180,190,200,200,530,SBD,1,
Ceris Moyle,F,,35,F_O_CR_BPU,,Wraps,106.35,90+,125,135,145,145,60,-70,70,70,140,150,155,155,370,SBD,2,
Inara Kuisele,F,,35,F_O_CR_BPU,,Wraps,110.85,90+,135,145,155,155,75,80,85,85,175,185,200,200,440,SBD,1,
Stephanie Skeggs,F,,37,F_O_M_ABPU,Yes,Multi-ply,87.75,90,215,-230,230,230,125,132.5,-140,132.5,160,170,-177.5,170,532.5,SBD,1,
Odette Smaldon,F,,25,F_O_R_ABPU,Yes,Raw,48,48,75,-80,-80,75,40,42.5,-45,42.5,100,110,-120,110,227.5,SBD,1,
Holly Davis,F,1987-09-13,31,F_O_R_ABPU,Yes,Raw,51.8,52,75,85,92.5,92.5,47.5,-50,-50,47.5,107.5,112.5,117.5,117.5,257.5,SBD,2,
Bota Cork,F,,38,F_O_R_ABPU,Yes,Raw,50.5,52,90,95,-97.5,95,50,-52.5,-52.5,50,130,137.5,-142.5,137.5,282.5,SBD,1,
Charlotte Taylor,F,,29,F_O_R_ABPU,Yes,Raw,55.2,56,95,-105,-105,95,50,55,-57.5,55,140,-152.5,-152.5,140,290,SBD,2,
Leanne Pearson,F,,32,F_O_R_ABPU,Yes,Raw,54.95,56,110,115,-117.5,115,55,57.5,60,60,110,120,-122.5,120,295,SBD,1,
Nel Fryzer,F,,27,F_O_R_ABPU,Yes,Raw,52.8,56,95,105,-110,105,42.5,-45,-45,42.5,-115,-115,-115,,,SBD,DQ,
Hanna Trew,F,,26,F_O_R_ABPU,Yes,Raw,59.65,60,75,80,-82.5,80,40,42.5,45,45,92.5,100,-110,100,225,SBD,6,
Shauna O'Brien,F,,29,F_O_R_ABPU,Yes,Raw,56.2,60,75,82.5,87.5,87.5,45,50,52.5,52.5,95,-105,-105,95,235,SBD,5,
Laura McKie,F,,27,F_O_R_ABPU,Yes,Raw,57.35,60,-85,85,95,95,42.5,47.5,50,50,107.5,112.5,120,120,265,SBD,4,
Nicky Corbett,F,,26,F_O_R_ABPU,Yes,Raw,58.5,60,105,115,-120,115,62.5,-67.5,-67.5,62.5,140,147.5,152.5,152.5,330,SBD,3,
Hannah Anderson,F,,34,F_O_R_ABPU,Yes,Raw,58.6,60,107.5,115,120,120,60,65,67.5,67.5,150,160,-170,160,347.5,SBD,2,
Kirsty Liggat,F,,24,F_O_R_ABPU,Yes,Raw,59.3,60,125,130,-135,130,70,75,77.5,77.5,142.5,150,155,155,362.5,SBD,1,
Cheryl Stanley,F,,,F_O_R_ABPU,Yes,Raw,60,60,,,,,,,,,,,,,,SBD,NS,
Jody Pritchard,F,,,F_O_R_ABPU,Yes,Raw,60,60,,,,,,,,,,,,,,SBD,NS,
Cheska Webb,F,,31,F_O_R_ABPU,Yes,Raw,59.85,60,-90,-90,-90,,50,55,-60,55,135,-140,-140,135,,SBD,DQ,
Chanel Hanes,F,,24,F_O_R_ABPU,Yes,Raw,63.65,67.5,100,107.5,-115,107.5,62.5,-67.5,-67.5,62.5,125,132.5,-137.5,132.5,302.5,SBD,3,
Natasha Brown,F,,25,F_O_R_ABPU,Yes,Raw,65.8,67.5,-120,120,-125,120,60,65,-67.5,65,137.5,145,152.5,152.5,337.5,SBD,2,
Rebecca Kay,F,,27,F_O_R_ABPU,Yes,Raw,65.2,67.5,130,140,145,145,70,75,-80,75,160,170,180,180,400,SBD,1,
Faye Nield,F,,32,F_O_R_ABPU,Yes,Raw,71.9,75,85,90,95,95,60,-65,-65,60,105,115,-122.5,115,270,SBD,7,
Danielle Longhorn,F,,35,F_O_R_ABPU,Yes,Raw,73,75,95,105,-107.5,105,47.5,52.5,-57.5,52.5,110,115,122.5,122.5,280,SBD,6,
Agata Mychlinska,F,,29,F_O_R_ABPU,Yes,Raw,73.4,75,100,-110,-110,100,45,-50,-50,45,140,145,150,150,295,SBD,5,
Kelly Mathews,F,,38,F_O_R_ABPU,Yes,Raw,74.25,75,85,95,-97.5,95,60,-62.5,62.5,62.5,130,137.5,142.5,142.5,300,SBD,4,
Claire Comiskey,F,,36,F_O_R_ABPU,Yes,Raw,69,75,95,102.5,-105,102.5,45,52.5,-55,52.5,140,152.5,-157.5,152.5,307.5,SBD,3,
Katie Rourke,F,,24,F_O_R_ABPU,Yes,Raw,74.6,75,120,127.5,-132.5,127.5,60,65,70,70,125,135,145,145,342.5,SBD,2,
Rachel Normington,F,,28,F_O_R_ABPU,Yes,Raw,81.15,82.5,85,90,95,95,50,-55,55,55,115,125,135,135,285,SBD,1,
Sarah Riley,F,,28,F_O_R_ABPU,Yes,Raw,86.85,90,85,92.5,100,100,67.5,70,75,75,130,135,-140,135,310,SBD,2,
Rose Pope,F,,28,F_O_R_ABPU,Yes,Raw,89.3,90,115,125,130,130,55,60,-65,60,125,140,-150,140,330,SBD,1,
Sophie Viner,F,,25,F_O_R_ABPU,Yes,Raw,110.3,90+,105,112.5,117.5,117.5,55,60,-65,60,140,150,155,155,332.5,SBD,5,
Sarah Knight,F,,34,F_O_R_ABPU,Yes,Raw,111.95,90+,115,125,135,135,70,75,80,80,110,120,127.5,127.5,342.5,SBD,4,
Vicki Highet,F,,30,F_O_R_ABPU,Yes,Raw,133.6,90+,110,120,130,130,82.5,87.5,92.5,92.5,135,150,-160,150,372.5,SBD,3,
Leighanne Russell,F,,37,F_O_R_ABPU,Yes,Raw,96.45,90+,140,147.5,155,155,-67.5,67.5,70,70,145,157.5,170,170,395,SBD,2,
Lucinda Perrett,F,,27,F_O_R_ABPU,Yes,Raw,129.05,90+,130,140,152.5,152.5,67.5,75,-80,75,145,160,170,170,397.5,SBD,1,
Kristel Nierman,F,,28,F_O_R_BPU,,Raw,59.9,60,122.5,127.5,132.5,132.5,52.5,57.5,60,60,152.5,160,-165,160,352.5,SBD,1,
Sharon Eggleton,F,,39,F_O_R_BPU,,Raw,66.5,67.5,160,170,180,180,-120,122.5,127.5,127.5,205,-220,-220,205,512.5,SBD,1,
Kerry Jones,F,,32,F_O_R_BPU,,Raw,74.45,75,135,150,-152.5,150,70,80,-82.5,80,150,-160,-160,150,380,SBD,1,
Gillian Millward,F,,38,F_O_S_ABPU,Yes,Single-ply,74.85,75,135,-140,140,140,80,-85,85,85,130,-135,-135,130,355,SBD,1,
Elaine Rollo,F,,36,F_O_S_ABPU,Yes,Single-ply,73.9,75,125,135,-142.5,135,-90,-90,-90,,135,142.5,-145,142.5,,SBD,DQ,
Gemma Wright,F,,26,F_O_S_ABPU,Yes,Single-ply,80.4,82.5,185,192.5,-200,192.5,90,100,-110,100,150,160,-170,160,452.5,SBD,1,
Chardonnay Holwell-Russell,F,,15,F_T1_R_ABPU,Yes,Raw,80.9,82.5,117.5,122.5,127.5,127.5,50,52.5,55,55,120,127.5,135,135,317.5,SBD,1,
Jade Medhurst,F,,17,F_T2_CR_ABPU,Yes,Wraps,67.3,67.5,85,92.5,-97.5,92.5,50,-55,55,55,125,132.5,140,140,287.5,SBD,1,
Savannah Millett,F,,18,F_T3_CR_ABPU,Yes,Wraps,92,90+,100,110,120,120,50,60,62.5,62.5,120,125,137.5,137.5,320,SBD,1,
Eliza Jobbins,F,,19,F_T3_R_ABPU,Yes,Raw,59.6,60,-80,80,90,90,35,37.5,-40,37.5,90,-97.5,-100,90,217.5,SBD,1,
David Wilson #1,M,,20,M_J_R_BPU,,Raw,98.75,100,,,,,180,190,,190,,,,,190,B,1,
Lee Mortimer,M,,41,M_M1_R_ABPU,Yes,Raw,143.65,140+,,,,,200,225,-245,225,,,,,225,B,1,
Paul Fishlock,M,,49,M_M2_M_BPU,,Multi-ply,87.7,90,,,,,-160,-160,160,160,,,,,160,B,1,
Randall Crooks,M,,,M_M2_R_BPU,,Raw,100,100,,,,,160,170,,170,,,,,170,B,1,
David Morris,M,,48,M_M2_R_BPU,,Raw,161.9,140+,,,,,212.5,-232.5,,212.5,,,,,212.5,B,1,
Paul Morgan,M,,45,M_M2_S_ABPU,Yes,Single-ply,106.65,110,,,,,-290,-300,-305,,,,,,,B,DQ,
Sean Blackburn,M,,51,M_M3_M_BPU,,Multi-ply,120.15,125,,,,,177.5,182.5,-192.5,182.5,,,,,182.5,B,1,
Rich Willis,M,,50,M_M3_R_ABPU,Yes,Raw,50.35,52,,,,,115,-120,120,120,,,,,120,B,1,
John Gilmer,M,,54,M_M3_R_BPU,,Raw,88.1,90,,,,,145,152.5,-157.5,152.5,,,,,152.5,B,1,
Chris Apark,M,,,M_M3_R_BPU,,Raw,125,125,,,,,140,145,-155,145,,,,,145,B,2,
Paul Weller,M,,54,M_M3_R_BPU,,Raw,121.9,125,,,,,157.5,-162.5,-162.5,157.5,,,,,157.5,B,1,
Rob Preston,M,,50,M_M3_S_BPU,,Single-ply,104.95,110,,,,,-270,-280,-280,,,,,,,B,DQ,
Kevin Maher,M,,57,M_M4_M_BPU,,Multi-ply,104.05,110,,,,,200,-207.5,-207.5,200,,,,,200,B,1,
Andrew Kuttner,M,,63,M_M5_R_ABPU,Yes,Raw,97.5,100,,,,,90,100,107.5,107.5,,,,,107.5,B,1,
Neil Bacon,M,,62,M_M5_R_BPU,,Raw,82.05,82.5,,,,,95,102.5,107.5,107.5,,,,,107.5,B,1,
Rob Hunter,M,,31,M_O_M_ABPU,Yes,Multi-ply,86.65,90,,,,,140,155,-162.5,155,,,,,155,B,1,
Al Brown,M,,37,M_O_M_BPU,,Multi-ply,108.7,110,,,,,212.5,-222.5,227.5,227.5,,,,,227.5,B,1,
Rich Willis,M,,50,M_O_R_ABPU,Yes,Raw,50.35,52,,,,,115,-120,120,120,,,,,120,B,1,
Sean Kilbride,M,,,M_O_R_ABPU,Yes,Raw,75,75,,,,,,,,,,,,,,B,NS,
Martin Cockcroft,M,,36,M_O_R_ABPU,Yes,Raw,89.1,90,,,,,150,165,170,170,,,,,170,B,2,
Joseph Brown,M,,29,M_O_R_ABPU,Yes,Raw,86.3,90,,,,,165,175,182.5,182.5,,,,,182.5,B,1,
Jason Etherington,M,,35,M_O_R_ABPU,Yes,Raw,92.9,100,,,,,80,-85,-85,80,,,,,80,B,1,
Warren Whitaker,M,,32,M_O_R_ABPU,Yes,Raw,121.45,125,,,,,160,172.5,182.5,182.5,,,,,182.5,B,2,
Andrew Whitaker,M,,,M_O_R_ABPU,Yes,Raw,110.45,125,,,,,200,215,227.5,227.5,,,,,227.5,B,1,
Pascal Vermeulen,M,,33,M_O_R_BPU,,Raw,75.1,82.5,,,,,130,135,140,140,,,,,140,B,2,
Ricky Macdonald,M,,33,M_O_R_BPU,,Raw,80.45,82.5,,,,,-150,150,157.5,157.5,,,,,157.5,B,1,
Tom Sheppard,M,,26,M_O_R_BPU,,Raw,99.8,100,,,,,160,172.5,-180,172.5,,,,,172.5,B,2,
Aamar Mahmood,M,,31,M_O_R_BPU,,Raw,96.05,100,,,,,222.5,-237.5,-237.5,222.5,,,,,222.5,B,1,
Adam Towse,M,,,M_O_R_BPU,,Raw,110,110,,,,,,,,,,,,,,B,NS,
Aaron Widdows,M,,30,M_O_R_BPU,,Raw,122.35,125,,,,,210,220,-230,220,,,,,220,B,1,
Jared Holmes,M,,27,M_O_R_BPU,,Raw,135.65,140,,,,,190,195,200,200,,,,,200,B,3,
Tom Price,M,,29,M_O_R_BPU,,Raw,130.85,140,,,,,230,255,-262.5,255,,,,,255,B,2,
James Williams #13,M,,35,M_O_R_BPU,,Raw,135.75,140,,,,,250,260,-270,260,,,,,260,B,1,
Ruud Gransier,M,,,M_O_R_BPU,,Raw,140,140,,,,,,,,,,,,,,B,NS,
Mitch Wright,M,,28,M_O_R_BPU,,Raw,150.8,140+,,,,,240,250,,250,,,,,250,B,1,
Paul Morgan,M,,45,M_O_S_ABPU,Yes,Single-ply,106.65,110,,,,,-290,-300,-305,,,,,,,B,DQ,
Robert Sawośko,M,,37,M_O_S_BPU,,Single-ply,105.3,110,,,,,215,225,-235,225,,,,,225,B,1,
Rohin Nayar,M,,22,M_J_R_ABPU,Yes,Raw,81.05,82.5,,,,,,,,,235,250,262.5,262.5,262.5,D,1,
Julian Howell,M,,43,M_M1_R_ABPU,Yes,Raw,108.65,110,,,,,,,,,220,240,250,250,250,D,1,
Lee Mortimer,M,,41,M_M1_R_ABPU,Yes,Raw,143.65,140+,,,,,,,,,270,292.5,-300,292.5,292.5,D,1,
Keith Nesbitt,M,,48,M_M2_R_BPU,,Raw,89.35,90,,,,,,,,,200,210,220,220,220,D,1,
Randall Crooks,M,,,M_M2_R_BPU,,Raw,100,100,,,,,,,,,270,-280,280,280,280,D,1,
David Morris,M,,48,M_M2_R_BPU,,Raw,161.9,140+,,,,,,,,,280,-300,312.5,312.5,312.5,D,1,
Sean McCarthy,M,,51,M_M3_R_ABPU,Yes,Raw,86.95,90,,,,,,,,,230,242.5,250,250,250,D,1,
Phil Watkins,M,,50,M_M3_S_BPU,,Single-ply,89.1,90,,,,,,,,,285,305,312.5,312.5,312.5,D,1,
Andrew Kuttner,M,,63,M_M5_R_ABPU,Yes,Raw,97.5,100,,,,,,,,,190,210,-232.5,210,210,D,1,
Jon-Paul Pearson,M,,34,M_O_R_ABPU,Yes,Raw,79.05,82.5,,,,,,,,,175,192.5,-200,192.5,192.5,D,2,
Chris Wehbe,M,,37,M_O_R_ABPU,Yes,Raw,81.65,82.5,,,,,,,,,212.5,232.5,237.5,237.5,237.5,D,1,
Tawanda Bwerudza,M,,,M_O_R_ABPU,Yes,Raw,100,100,,,,,,,,,,,,,,D,NS,
Edward Holt,M,,26,M_O_R_ABPU,Yes,Raw,108.6,110,,,,,,,,,220,240,250,250,250,D,1,
Tom Sheppard,M,,26,M_O_R_BPU,,Raw,99.8,100,,,,,,,,,270,290,-302.5,290,290,D,1,
Mitchell Mares,M,,33,M_O_R_BPU,,Raw,104.65,110,,,,,,,,,240,250,-260,250,250,D,1,
Adam Towse,M,,,M_O_R_BPU,,Raw,110,110,,,,,,,,,,,,,,D,NS,
Mateusz Rudzik,M,,,M_O_R_BPU,,Raw,125,125,,,,,,,,,,,,,,D,NS,
Jared Holmes,M,,27,M_O_R_BPU,,Raw,135.65,140,,,,,,,,,305,,,305,305,D,2,
Lee Gates,M,,32,M_O_R_BPU,,Raw,134.45,140,,,,,,,,,290,330,-340,330,330,D,1,
Adeel Rana,M,,38,M_O_S_ABPU,Yes,Single-ply,75,75,,,,,,,,,250,275,285,285,285,D,1,
Bradley Nortcliffe,M,,23,M_J_CR_ABPU,Yes,Wraps,59.95,60,170,180,-187.5,180,105,112.5,117.5,117.5,205,222.5,230,230,527.5,SBD,1,
Tom Hawkins,M,,22,M_J_CR_ABPU,Yes,Wraps,74.5,75,80,92.5,102.5,102.5,70,-80,-80,70,75,80,87.5,87.5,260,SBD,1,
Matt Chubb,M,,20,M_J_CR_ABPU,Yes,Wraps,80.55,82.5,145,157.5,165,165,87.5,97.5,-105,97.5,180,190,-200,190,452.5,SBD,4,
Daniel Routledge,M,,23,M_J_CR_ABPU,Yes,Wraps,79.2,82.5,160,170,180,180,92.5,97.5,-102.5,97.5,200,210,-215,210,487.5,SBD,3,
Jamie Routledge,M,,21,M_J_CR_ABPU,Yes,Wraps,81.2,82.5,170,187.5,195,195,110,115,-120,115,230,245,252.5,252.5,562.5,SBD,2,
Dylan Cilliers,M,,20,M_J_CR_ABPU,Yes,Wraps,80.7,82.5,190,202.5,207.5,207.5,120,127.5,132.5,132.5,235,250,-260,250,590,SBD,1,
Luke Bebbington,M,,,M_J_CR_ABPU,Yes,Wraps,82.5,82.5,,,,,,,,,,,,,,SBD,NS,
Sean Green #1,M,,20,M_J_CR_ABPU,Yes,Wraps,87.95,90,140,150,162.5,162.5,82.5,90,95,95,195,205,215,215,472.5,SBD,3,
Dan Chalwin,M,,20,M_J_CR_ABPU,Yes,Wraps,88.8,90,200,210,-215,210,130,-137.5,-137.5,130,200,210,-220,210,550,SBD,2,
Sam Mclean,M,,22,M_J_CR_ABPU,Yes,Wraps,87.75,90,232.5,247.5,255,255,-142.5,142.5,150,150,247.5,262.5,-272.5,262.5,667.5,SBD,1,
Zachary Ellington,M,,23,M_J_CR_ABPU,Yes,Wraps,94.95,100,150,162.5,-170,162.5,75,-85,85,85,180,-192.5,192.5,192.5,440,SBD,2,
Will Lewis,M,,23,M_J_CR_ABPU,Yes,Wraps,96.95,100,235,250,262.5,262.5,140,147.5,-155,147.5,240,260,-275,260,670,SBD,1,
Alexander Gurton,M,,23,M_J_CR_ABPU,Yes,Wraps,107.8,110,-30,30,,30,140,150,155,155,230,245,-260,245,430,SBD,1,
Ashley Armstrong #1,M,,23,M_J_CR_BPU,,Wraps,82,82.5,245,255,260,260,170,177.5,-182.5,177.5,290,302.5,307.5,307.5,745,SBD,1,
Lewis Lacey,M,,23,M_J_CR_BPU,,Wraps,85.9,90,-210,210,-220,210,135,-140,-140,135,280,300,-310,300,645,SBD,1,
Christopher Park,M,,21,M_J_CR_BPU,,Wraps,107.25,110,215,227.5,240,240,127.5,137.5,-142.5,137.5,270,-292.5,-292.5,270,647.5,SBD,1,
Gariq Johnson,M,,23,M_J_CR_BPU,,Wraps,119.75,125,-240,240,250,250,185,192.5,197.5,197.5,290,305,312.5,312.5,760,SBD,1,
Will Holliday,M,,21,M_J_CR_BPU,,Wraps,138.7,140,240,-260,270,270,175,182.5,190,190,270,285,295,295,755,SBD,2,
Lewis King,M,,23,M_J_CR_BPU,,Wraps,138.7,140,320,340,350,350,170,185,192.5,192.5,260,280,-295,280,822.5,SBD,1,
William Harvey,M,,20,M_J_R_ABPU,Yes,Raw,70.7,75,120,130,-140,130,70,-75,,70,160,175,-190,175,375,SBD,2,
Amari Robinson,M,,23,M_J_R_ABPU,Yes,Raw,74.45,75,-190,200,210,210,135,140,-145,140,215,225,-235,225,575,SBD,1,
Max Reynolds,M,,21,M_J_R_ABPU,Yes,Raw,81.85,82.5,-145,160,170,170,105,117.5,130,130,165,185,200,200,500,SBD,2,
Joe Bastin,M,,21,M_J_R_ABPU,Yes,Raw,81.85,82.5,180,192.5,-200,192.5,120,125,-127.5,125,215,225,-240,225,542.5,SBD,1,
Brandon Farrow,M,,,M_J_R_ABPU,Yes,Raw,82.5,82.5,,,,,,,,,,,,,,SBD,NS,
Jack Harvey #1,M,,,M_J_R_ABPU,Yes,Raw,82.5,82.5,,,,,,,,,,,,,,SBD,NS,
Stafford Young,M,,20,M_J_R_ABPU,Yes,Raw,83.55,90,-145,145,150,150,75,85,90,90,175,190,-200,190,430,SBD,2,
Tyler White,M,,20,M_J_R_ABPU,Yes,Raw,87.2,90,170,180,-190,180,120,130,-140,130,220,230,240,240,550,SBD,1,
Sam Picknett,M,,20,M_J_R_ABPU,Yes,Raw,99.6,100,150,-160,160,160,90,95,100,100,-200,200,-215,200,460,SBD,1,
Peter King,M,,22,M_J_R_BPU,,Raw,81.45,82.5,180,200,-210,200,120,130,-140,130,230,250,260,260,590,SBD,1,
Nathaniel Pettit,M,,,M_J_R_BPU,,Raw,90,90,,,,,,,,,,,,,,SBD,NS,
Steven Arnold,M,,40,M_M1_CR_ABPU,Yes,Wraps,87.05,90,170,182.5,,182.5,130,135,,135,190,205,-210,205,522.5,SBD,2,
Marcin Kaleta,M,,41,M_M1_CR_ABPU,Yes,Wraps,89,90,220,-240,-240,220,110,-120,-120,110,200,215,220,220,550,SBD,1,
Ben Algar,M,,42,M_M1_CR_ABPU,Yes,Wraps,119.8,125,230,245,-255,245,115,120,-122.5,120,230,245,250,250,615,SBD,1,
Daniel Bassett,M,,43,M_M1_CR_BPU,,Wraps,79.15,82.5,30,,,30,80,87.5,92.5,92.5,200,215,230,230,352.5,SBD,1,
William McNeil,M,,41,M_M1_CR_BPU,,Wraps,105.05,110,160,180,,180,180,187.5,192.5,192.5,230,245,-252.5,245,617.5,SBD,2,
Kevin Hewitson,M,,41,M_M1_CR_BPU,,Wraps,109.05,110,210,220,230,230,135,142.5,150,150,220,235,245,245,625,SBD,1,
Tomasz Gorny,M,,,M_M1_CR_BPU,,Wraps,125,125,,,,,,,,,,,,,,SBD,NS,
Darren McCormac,M,,42,M_M1_CR_BPU,,Wraps,131.25,140,250,265,-275,265,180,192.5,-202.5,192.5,350,370,-385,370,827.5,SBD,1,
Sibghat Ullah,M,,40,M_M1_R_ABPU,Yes,Raw,74.85,75,145,155,165,165,90,95,-100,95,182.5,192.5,202.5,202.5,462.5,SBD,1,
Nadeem Mahmood,M,,40,M_M1_R_ABPU,Yes,Raw,109.45,110,175,180,190,190,95,105,-115,105,190,205,215,215,510,SBD,2,
David Aboagye,M,,41,M_M1_R_ABPU,Yes,Raw,106.1,110,-195,-195,195,195,110,115,120,120,190,200,210,210,525,SBD,1,
Darryl Triance,M,,42,M_M1_R_BPU,,Raw,89.65,90,185,205,212.5,212.5,135,-145,-145,135,-240,240,255,255,602.5,SBD,1,
Tony Roscoe,M,,47,M_M2_CR_ABPU,Yes,Wraps,80.15,82.5,165,-170,-170,165,105,-112.5,-112.5,105,210,225,-230,225,495,SBD,1,
David Wade,M,,,M_M2_CR_ABPU,Yes,Wraps,100,100,140,150,160,160,100,-110,-110,100,170,190,-200,190,450,SBD,2,
Pete Tryner,M,,,M_M2_CR_ABPU,Yes,Wraps,100,100,200,207.5,212.5,212.5,140,-145,,140,-270,277.5,-290,277.5,630,SBD,1,
Richard Baker,M,,49,M_M2_CR_ABPU,Yes,Wraps,106.25,110,190,205,-212.5,205,137.5,145,-147.5,145,220,-240,,220,570,SBD,2,
Sam Watt,M,,48,M_M2_CR_ABPU,Yes,Wraps,106.85,110,315,335,340,340,170,185,187.5,187.5,310,330,-350,330,857.5,SBD,1,
John Pollard,M,,48,M_M2_CR_ABPU,Yes,Wraps,119.65,125,-165,-165,-165,,120,-125,-140,120,175,185,200,200,,SBD,DQ,
Mark Lawford,M,,,M_M2_CR_ABPU,Yes,Wraps,125,125,,,,,,,,,,,,,,SBD,NS,
Bob Fielding,M,,49,M_M2_CR_BPU,,Wraps,88.4,90,160,,,160,-125,125,135,135,140,170,,170,465,SBD,1,
Olaf Niessink,M,,45,M_M2_CR_BPU,,Wraps,123.3,125,190,-210,210,210,110,122.5,130,130,210,240,,240,580,SBD,G,Netherlands
Anthony Gill,M,,49,M_M2_R_ABPU,Yes,Raw,81.95,82.5,140,147.5,152.5,152.5,107.5,112.5,115,115,160,,,160,427.5,SBD,1,
Robert Thornhill,M,,,M_M2_R_ABPU,Yes,Raw,125,125,110,117.5,120,120,95,102.5,105,105,150,-165,167.5,167.5,392.5,SBD,1,
Stephen Knight,M,,45,M_M2_R_BPU,,Raw,92.35,100,160,180,200,200,150,160,165,165,200,220,240,240,605,SBD,1,
Ken Jones,M,,,M_M2_R_BPU,,Raw,125,125,,,,,,,,,,,,,,SBD,NS,
Darren Hammond,M,,47,M_M2_R_BPU,,Raw,105.6,110,215,-230,-230,215,130,140,-145,140,280,295,-305,295,650,SBD,1,
Mark Lockstone,M,,,M_M3_CR_ABPU,Yes,Wraps,75,75,,,,,,,,,,,,,,SBD,NS,
Jeremy Cope,M,,51,M_M3_CR_BPU,,Wraps,90,90,220,240,252.5,252.5,145,155,-160,155,230,260,-275,260,667.5,SBD,1,
Darren Walker,M,,50,M_M3_CR_BPU,,Wraps,94.6,100,212.5,227.5,230,230,140,150,160,160,250,272.5,280,280,670,SBD,1,
Paul Weller,M,,54,M_M3_CR_BPU,,Wraps,121.9,125,140,,,140,157.5,-162.5,-162.5,157.5,180,,,180,477.5,SBD,1,
Jan Hitchcock,M,,,M_M3_R_ABPU,Yes,Raw,90,90,165,170,180,180,155,165,-172.5,165,175,185,195,195,540,SBD,1,
Joey Mitchell,M,,53,M_M3_R_BPU,,Raw,57.7,60,100,110,120,120,65,70,72.5,72.5,120,130,140,140,332.5,SBD,1,
Tom Mcmutrie,M,,51,M_M3_R_BPU,,Raw,119.85,125,180,200,210,210,145,152.5,157.5,157.5,250,265,270,270,637.5,SBD,1,
Terry Short,M,,52,M_M3_R_BPU,,Raw,98.15,100,180,200,,200,90,-100,100,100,200,,,200,500,SBD,1,
Paul Murphy,M,,50,M_M3_S_BPU,,Single-ply,85.75,90,260,275,-282.5,275,130,137.5,-145,137.5,260,272.5,-280,272.5,685,SBD,1,
Don Coates,M,,58,M_M4_CR_ABPU,Yes,Wraps,94.9,100,200,220,230,230,150,160,170,170,240,260,-270,260,660,SBD,1,
William Lawson,M,,58,M_M4_R_BPU,,Raw,80.65,82.5,152.5,162.5,-165,162.5,115,-127.5,-127.5,115,170,180,185,185,462.5,SBD,1,
Rik Davison,M,,58,M_M4_R_BPU,,Raw,96.9,100,,,,,155,162.5,-170,162.5,,,,,162.5,B,1,
Rik Davison,M,,58,M_M4_R_BPU,,Raw,96.9,100,,,,,,,,,250,265,277.5,277.5,277.5,D,1,
Adrian Phillips,M,,55,M_M4_S_ABPU,Yes,Single-ply,96.55,100,220,230,240,240,135,142.5,150,150,225,240,250,250,640,SBD,1,
Slawomir Kaleta,M,,64,M_M5_CR_ABPU,Yes,Wraps,72.15,75,160,-180,-200,160,90,-97.5,-97.5,90,170,185,-200,185,435,SBD,1,
Coert Hoppenbrouwers,M,,61,M_M5_CR_BPU,,Wraps,78.25,82.5,150,165,175,175,110,115,120,120,180,200,220,220,515,SBD,G,Netherlands
Henk Nijstad,M,,61,M_M5_CR_BPU,,Wraps,81.1,82.5,125,135,140,140,105,110,-115,110,150,160,-165,160,410,SBD,G,Netherlands
Peter Oram,M,,64,M_M5_R_BPU,,Raw,87.7,90,105,-115,-115,105,55,65,-75,65,155,172.5,180,180,350,SBD,1,
Rob Todd,M,,73,M_M7_CR_ABPU,Yes,Wraps,97.85,100,120,130,140,140,80,85,-90,85,150,160,170,170,395,SBD,1,
Colin Ardron,M,,,M_M7_R_ABPU,Yes,Raw,,67.5,,,,,,,,,,,,,,SBD,NS,
Gurnaik Birring,M,,28,M_O_CR_ABPU,Yes,Wraps,58.9,60,160,170,-180,170,115,125,130,130,180,190,200,200,500,SBD,1,
Scott Thomas,M,,28,M_O_CR_ABPU,Yes,Wraps,65.75,67.5,115,-125,125,125,95,100,-102.5,100,180,190,-200,190,415,SBD,3,
Alister Little,M,,33,M_O_CR_ABPU,Yes,Wraps,65.35,67.5,170,-180,180,180,110,115,117.5,117.5,190,202.5,,202.5,500,SBD,2,
Daniel Gildersleeve,M,,32,M_O_CR_ABPU,Yes,Wraps,67.05,67.5,185,195,202.5,202.5,115,125,-130,125,215,232.5,240,240,567.5,SBD,1,
Max Colonna Dashwood,M,,33,M_O_CR_ABPU,Yes,Wraps,74.65,75,190,200,205,205,110,117.5,120,120,210,220,-230,220,545,SBD,2,
Jay Bello,M,,28,M_O_CR_ABPU,Yes,Wraps,75,75,250,-270,-270,250,150,155,-160,155,290,-300,-300,290,695,SBD,1,
Piotr Zietal,M,,32,M_O_CR_ABPU,Yes,Wraps,81.25,82.5,157.5,165,170,170,100,105,110,110,190,200,205,205,485,SBD,6,
Dan Watkins,M,,31,M_O_CR_ABPU,Yes,Wraps,81.95,82.5,200,215,217.5,217.5,120,127.5,-132.5,127.5,235,250,-265,250,595,SBD,4,
Jonathan Price,M,,28,M_O_CR_ABPU,Yes,Wraps,81.2,82.5,215,235,-242.5,235,145,155,-162.5,155,220,-237.5,240,240,630,SBD,3,
Simon Vickers,M,,36,M_O_CR_ABPU,Yes,Wraps,81.45,82.5,240,-260,-260,240,130,135,140,140,260,-275,,260,640,SBD,2,
Paul Beattie,M,,31,M_O_CR_ABPU,Yes,Wraps,80.15,82.5,210,230,240,240,150,155,-162.5,155,240,255,262.5,262.5,657.5,SBD,1,
Michael Elias,M,,,M_O_CR_ABPU,Yes,Wraps,82.5,82.5,,,,,,,,,,,,,,SBD,NS,
Leo Draper,M,,25,M_O_CR_ABPU,Yes,Wraps,78.4,82.5,-245,-260,-262.5,,120,130,-132.5,130,240,260,,260,,SBD,DQ,
Nicholas Mendham,M,,27,M_O_CR_ABPU,Yes,Wraps,83.15,90,160,175,-185,175,-112.5,115,-120,115,225,235,-240,235,525,SBD,5,
Chay Boare,M,,33,M_O_CR_ABPU,Yes,Wraps,86.7,90,235,245,260,260,120,130,137.5,137.5,205,220,225,225,622.5,SBD,4,
Luther Nzinga,M,,27,M_O_CR_ABPU,Yes,Wraps,89.7,90,220,230,240,240,135,-145,145,145,235,250,255,255,640,SBD,4,
Jonathan Vince,M,,26,M_O_CR_ABPU,Yes,Wraps,88.5,90,220,240,-250,240,157.5,-162.5,-162.5,157.5,255,265,,265,662.5,SBD,2,
Andy Parton,M,,32,M_O_CR_ABPU,Yes,Wraps,86.95,90,255,272.5,282.5,282.5,145,152.5,-157.5,152.5,245,-265,-265,245,680,SBD,1,
Danny O'Brien,M,,,M_O_CR_ABPU,Yes,Wraps,90,90,,,,,,,,,,,,,,SBD,NS,
Kieran Johnson,M,,30,M_O_CR_ABPU,Yes,Wraps,100,100,150,160,165,165,127.5,137.5,145,145,185,-210,-210,185,495,SBD,14,
Gavin Whittakar,M,,33,M_O_CR_ABPU,Yes,Wraps,96.1,100,175,190,-200,190,110,117.5,122.5,122.5,210,220,227.5,227.5,540,SBD,13,
John Mitchell,M,,27,M_O_CR_ABPU,Yes,Wraps,96.6,100,160,190,-200,190,140,150,155,155,220,230,-235,230,575,SBD,12,
Joe Byrne,M,,26,M_O_CR_ABPU,Yes,Wraps,99.2,100,205,215,220,220,130,135,142.5,142.5,205,215,222.5,222.5,585,SBD,11,
Chris Robinson #1,M,,28,M_O_CR_ABPU,Yes,Wraps,93.4,100,200,215,225,225,120,130,140,140,220,-230,-230,220,585,SBD,10,
Darren Collett,M,,37,M_O_CR_ABPU,Yes,Wraps,97.15,100,190,205,215,215,125,132.5,-135,132.5,230,242.5,-252.5,242.5,590,SBD,9,
Antony Bryan,M,,34,M_O_CR_ABPU,Yes,Wraps,96.35,100,195,205,-215,205,130,135,-140,135,225,245,250,250,590,SBD,8,
Hefin Evans,M,,33,M_O_CR_ABPU,Yes,Wraps,98.55,100,190,205,215,215,165,170,175,175,220,-230,235,235,625,SBD,7,
Pete Tryner,M,,,M_O_CR_ABPU,Yes,Wraps,100,100,200,207.5,212.5,212.5,140,-145,,140,-270,277.5,-290,277.5,630,SBD,6,
Jason Berrington,M,,35,M_O_CR_ABPU,Yes,Wraps,95.85,100,200,212.5,222.5,222.5,140,147.5,152.5,152.5,240,255,265,265,640,SBD,5,
Jesse Page,M,,31,M_O_CR_ABPU,Yes,Wraps,98.7,100,215,227.5,232.5,232.5,145,155,160,160,245,255,-260,255,647.5,SBD,4,
Joseph Saveker,M,,28,M_O_CR_ABPU,Yes,Wraps,97.1,100,225,235,-245,235,137.5,147.5,-150,147.5,240,255,265,265,647.5,SBD,3,
Josh Walton,M,,26,M_O_CR_ABPU,Yes,Wraps,93.95,100,250,265,275,275,-152.5,157.5,162.5,162.5,270,285,-300,285,722.5,SBD,2,
Gerry-Lee Pierre,M,,25,M_O_CR_ABPU,Yes,Wraps,99.85,100,275,305,-315,305,175,-185,-185,175,275,300,305,305,785,SBD,1,
Dariusz Kubik,M,,,M_O_CR_ABPU,Yes,Wraps,100,100,,,,,,,,,,,,,,SBD,NS,
Marlon Wragg,M,,,M_O_CR_ABPU,Yes,Wraps,100,100,,,,,,,,,,,,,,SBD,NS,
Tawanda Bwerudza,M,,,M_O_CR_ABPU,Yes,Wraps,100,100,,,,,,,,,,,,,,SBD,NS,
Ty Tankard,M,,,M_O_CR_ABPU,Yes,Wraps,100,100,,,,,,,,,,,,,,SBD,NS,
Harrison Fleetwood,M,,29,M_O_CR_ABPU,Yes,Wraps,102.25,110,-250,265,-282.5,265,125,135,-145,135,240,250,,250,650,SBD,7,
Edward Holt,M,,26,M_O_CR_ABPU,Yes,Wraps,108.6,110,-230,247.5,260,260,140,155,-160,155,220,240,250,250,665,SBD,6,
Edward Dove,M,,28,M_O_CR_ABPU,Yes,Wraps,105.35,110,220,230,240,240,150,160,165,165,240,250,260,260,665,SBD,5,
James Crosbie,M,,36,M_O_CR_ABPU,Yes,Wraps,108.05,110,227.5,240,250,250,145,152.5,-160,152.5,270,280,290,290,692.5,SBD,4,
Rob Warburton,M,,36,M_O_CR_ABPU,Yes,Wraps,109.65,110,255,265,-272.5,265,145,152.5,-157.5,152.5,275,292.5,-300,292.5,710,SBD,3,
Michael Walton,M,,27,M_O_CR_ABPU,Yes,Wraps,101,110,240,255,267.5,267.5,142.5,147.5,150,150,280,297.5,310,310,727.5,SBD,2,
Sam Watt,M,,48,M_O_CR_ABPU,Yes,Wraps,106.85,110,315,335,340,340,170,185,187.5,187.5,310,330,-350,330,857.5,SBD,1,
Stephen Reece,M,,,M_O_CR_ABPU,Yes,Wraps,110,110,,,,,,,,,,,,,,SBD,NS,
Daniel McCaffrey,M,,34,M_O_CR_ABPU,Yes,Wraps,122.9,125,230,-240,-240,230,105,110,-115,110,200,210,-220,210,550,SBD,8,
Will Freeman Dunn,M,,,M_O_CR_ABPU,Yes,Wraps,123.8,125,195,205,215,215,175,185,190,190,205,220,-235,220,625,SBD,7,
Ben Stacey,M,,26,M_O_CR_ABPU,Yes,Wraps,124.2,125,230,240,250,250,140,150,160,160,240,255,270,270,680,SBD,6,
Jason Vernon,M,,30,M_O_CR_ABPU,Yes,Wraps,125,125,230,255,265,265,150,160,165,165,240,260,270,270,700,SBD,5,
Aaron Hopkins,M,,28,M_O_CR_ABPU,Yes,Wraps,123.65,125,250,275,282.5,282.5,150,-160,-160,150,280,305,-310,305,737.5,SBD,4,
Lucas Royce,M,,29,M_O_CR_ABPU,Yes,Wraps,112.2,125,260,280,-285,280,170,180,-187.5,180,300,-325,-325,300,760,SBD,3,
Michael Cook,M,,27,M_O_CR_ABPU,Yes,Wraps,117.85,125,260,280,290,290,180,190,202.5,202.5,270,285,300,300,792.5,SBD,2,
John Marsden #1,M,,33,M_O_CR_ABPU,Yes,Wraps,113.1,125,285,305,-322.5,305,170,175,-180,175,280,300,312.5,312.5,792.5,SBD,1,
Julian McKerrow,M,,28,M_O_CR_ABPU,Yes,Wraps,122.85,125,-255,262.5,272.5,272.5,185,192.5,-200,192.5,305,325,332.5,332.5,797.5,SBD,1,
Mark Lawford,M,,,M_O_CR_ABPU,Yes,Wraps,125,125,,,,,,,,,,,,,,SBD,NS,
Alex McClymont,M,,36,M_O_CR_ABPU,Yes,Wraps,128,140,200,215,230,230,150,162.5,170,170,225,245,260,260,660,SBD,4,
Kieran Cooper,M,,24,M_O_CR_ABPU,Yes,Wraps,131.8,140,240,255,270,270,175,182.5,185,185,200,215,222.5,222.5,677.5,SBD,3,
Scott Rawlings,M,,25,M_O_CR_ABPU,Yes,Wraps,138.1,140,245,275,290,290,140,150,-155,150,250,275,-290,275,715,SBD,2,
Kane Francis,M,,26,M_O_CR_ABPU,Yes,Wraps,135.25,140,292.5,307.5,317.5,317.5,172.5,182.5,190,190,270,292.5,305,305,812.5,SBD,1,
Liam Jones,M,,32,M_O_CR_ABPU,Yes,Wraps,141.75,140+,195,210,220,220,142.5,152.5,157.5,157.5,255,267.5,275,275,652.5,SBD,4,
Chris Smith,M,,33,M_O_CR_ABPU,Yes,Wraps,166.05,140+,240,265,275,275,165,172.5,177.5,177.5,250,265,275,275,727.5,SBD,3,
Lewis Deeley,M,,28,M_O_CR_ABPU,Yes,Wraps,159.55,140+,260,285,295,295,142.5,152.5,160,160,250,265,272.5,272.5,727.5,SBD,2,
Mitchal Flowers,M,,28,M_O_CR_ABPU,Yes,Wraps,171.65,140+,310,340,350,350,190,200,210,210,300,317.5,327.5,327.5,887.5,SBD,1,
Jamie Walmsley,M,,31,M_O_CR_ABPU,Yes,Wraps,79.8,82.5,155,165,170,170,117.5,125,-130,125,195,205,-215,205,500,SBD,5,
Lee Donohue,M,,25,M_O_CR_ABPU,Yes,Wraps,88.05,90,-180,180,190,190,110,115,117.5,117.5,200,220,-230,220,527.5,SBD,3,
Matthew Tatman,M,,32,M_O_CR_ABPU,Yes,Wraps,88.15,90,195,205,210,210,117.5,-125,-125,117.5,215,-225,-225,215,542.5,SBD,2,
Leon Holmes,M,,24,M_O_CR_ABPU,Yes,Wraps,89.9,90,240,250,265,265,140,-145,-145,140,270,-300,-300,270,675,SBD,1,
Alireza Herfedoust,M,,32,M_O_CR_BPU,,Wraps,73.55,75,240,270,-305,270,135,-142.5,,135,220,240,260,260,665,SBD,1,
Darren Clayton,M,,38,M_O_CR_BPU,,Wraps,81.4,82.5,200,220,230,230,140,150,-160,150,230,245,-255,245,625,SBD,5,
Merat Tafreshi,M,,27,M_O_CR_BPU,,Wraps,79.7,82.5,260,-285,-285,260,125,135,140,140,220,-240,240,240,640,SBD,4,
Andrew Smith #2,M,,28,M_O_CR_BPU,,Wraps,80.9,82.5,240,-257.5,257.5,257.5,155,165,-170,165,255,272.5,,272.5,695,SBD,3,
David Todd,M,,36,M_O_CR_BPU,,Wraps,82.05,82.5,240,255,-270,255,155,162.5,-165,162.5,265,282.5,-302.5,282.5,700,SBD,2,
Mike Hoare,M,,27,M_O_CR_BPU,,Wraps,80.45,82.5,255,270,280,280,155,-162.5,-162.5,155,275,-300,-300,275,710,SBD,1,
Ian Williams,M,,26,M_O_CR_BPU,,Wraps,87.4,90,210,225,232.5,232.5,155,165,-172.5,165,225,245,250,250,647.5,SBD,3,
Dean Wyatt,M,,28,M_O_CR_BPU,,Wraps,89.2,90,270,290,300,300,145,152.5,157.5,157.5,260,270,-282.5,270,727.5,SBD,2,
Philip Carleton,M,,35,M_O_CR_BPU,,Wraps,89.4,90,270,290,300,300,160,170,-175,170,270,-285,285,285,755,SBD,1,
Chris McClarence,M,,,M_O_CR_BPU,,Wraps,90,90,,,,,,,,,,,,,,SBD,NS,
Ian Armstrong,M,,,M_O_CR_BPU,,Wraps,90,90,,,,,,,,,,,,,,SBD,NS,
Gareth James,M,,39,M_O_CR_BPU,,Wraps,88.4,90,190,-200,,190,-120,,,,-240,,,,,SBD,DQ,
Alex Laughton,M,,33,M_O_CR_BPU,,Wraps,99.6,100,-200,200,220,220,160,170,-180,170,-220,230,250,250,640,SBD,9,
Danny Hylands,M,,31,M_O_CR_BPU,,Wraps,93.95,100,210,225,240,240,140,150,-162.5,150,245,265,280,280,670,SBD,8,
Conor Neilly,M,,27,M_O_CR_BPU,,Wraps,98.2,100,240,250,265,265,142.5,150,-155,150,270,290,-295,290,705,SBD,7,
Andrew Riddiford,M,,30,M_O_CR_BPU,,Wraps,98.4,100,-265,-265,265,265,130,145,-155,145,300,,,300,710,SBD,6,
Chris Lane #1,M,,37,M_O_CR_BPU,,Wraps,99.15,100,230,242.5,252.5,252.5,150,160,167.5,167.5,270,290,302.5,302.5,722.5,SBD,5,
James Matthews-Williams,M,,28,M_O_CR_BPU,,Wraps,96.2,100,280,-300,300,300,160,170,175,175,250,270,280,280,755,SBD,4,
Edgaras Kreipavicius,M,,31,M_O_CR_BPU,,Wraps,98.75,100,300,320,-335,320,165,175,-185,175,300,320,-335,320,815,SBD,3,
Mike Jones #1,M,,26,M_O_CR_BPU,,Wraps,99.5,100,310,325,340,340,180,187.5,-192.5,187.5,300,320,-330,320,847.5,SBD,2,
Luke Hayward,M,,34,M_O_CR_BPU,,Wraps,98.55,100,290,305,-315,305,210,220,-227.5,220,325,335,-340,335,860,SBD,1,
Craig Marshall,M,,,M_O_CR_BPU,,Wraps,100,100,,,,,,,,,,,,,,SBD,NS,
Tom Wride,M,,30,M_O_CR_BPU,,Wraps,100,100,,,,,,,,,,,,,,SBD,NS,
Shane Jerman,M,,29,M_O_CR_BPU,,Wraps,98.3,100,340,350,-360,350,190,210,-220,210,,,,,,SBD,DQ,
Brett Brooks,M,,26,M_O_CR_BPU,,Wraps,109.45,110,-230,230,-240,230,120,-130,,120,265,-280,,265,615,SBD,9,
Conor Mallon,M,,24,M_O_CR_BPU,,Wraps,104.65,110,-220,220,230,230,150,160,-165,160,245,260,265,265,655,SBD,8,
Grant Roberts,M,,28,M_O_CR_BPU,,Wraps,107.85,110,250,262.5,-267.5,262.5,175,182.5,-187.5,182.5,260,-272.5,-272.5,260,705,SBD,7,
Michael Delastie,M,,28,M_O_CR_BPU,,Wraps,108.05,110,260,275,290,290,160,172.5,177.5,177.5,232.5,242.5,252.5,252.5,720,SBD,6,
Aaron Moody,M,,30,M_O_CR_BPU,,Wraps,108.25,110,250,265,280,280,150,162.5,170,170,265,280,-290,280,730,SBD,5,
Alan Wilson,M,,38,M_O_CR_BPU,,Wraps,102.8,110,290,305,315,315,135,145,-150,145,270,282.5,292.5,292.5,752.5,SBD,4,
Adam Riman,M,,25,M_O_CR_BPU,,Wraps,102.7,110,280,310,,310,125,132.5,135,135,290,315,,315,760,SBD,3,
Thaheer Mannan,M,,31,M_O_CR_BPU,,Wraps,108.05,110,315,335,345,345,147.5,155,160,160,285,305,315,315,820,SBD,2,
David Aldworth,M,,36,M_O_CR_BPU,,Wraps,109.8,110,270,282.5,290,290,185,192.5,197.5,197.5,305,315,335,335,822.5,SBD,1,
Kye Brown,M,,,M_O_CR_BPU,,Wraps,110,110,,,,,,,,,,,,,,SBD,NS,
Mark Harbert,M,,,M_O_CR_BPU,,Wraps,110,110,,,,,,,,,,,,,,SBD,NS,
Matthew Aldrich,M,,,M_O_CR_BPU,,Wraps,110,110,,,,,,,,,,,,,,SBD,NS,
Mitchell Mares,M,,33,M_O_CR_BPU,,Wraps,104.65,110,240,252.5,260,260,-150,-150,-150,,240,250,-260,250,,SBD,DQ,
Peter Jones,M,,39,M_O_CR_BPU,,Wraps,117.6,125,230,-250,260,260,135,-142.5,142.5,142.5,250,265,-272.5,265,667.5,SBD,8,
Danyle Ferguson,M,,26,M_O_CR_BPU,,Wraps,121.55,125,230,245,255,255,160,167.5,-175,167.5,240,-260,260,260,682.5,SBD,7,
Terry Groen,M,,30,M_O_CR_BPU,,Wraps,112.25,125,210,230,245,245,155,170,175,175,235,255,270,270,690,SBD,6,
Nathan Wickham,M,,26,M_O_CR_BPU,,Wraps,123.05,125,235,245,-255,245,165,-175,175,175,270,275,-280,275,695,SBD,5,
Nick Rovers,M,1991-12-27,27,M_O_CR_BPU,,Wraps,119.35,125,252.5,272.5,282.5,282.5,165,180,185,185,252.5,282.5,-290,282.5,750,SBD,4,
Pete Edgell,M,,26,M_O_CR_BPU,,Wraps,123.1,125,252.5,267.5,280,280,145,152.5,160,160,295,310,317.5,317.5,757.5,SBD,3,
Mark Snell,M,,30,M_O_CR_BPU,,Wraps,117.75,125,275,305,315,315,175,185,-190,185,300,310,-315,310,810,SBD,2,
Eliot Page,M,,26,M_O_CR_BPU,,Wraps,114,125,340,360,-365,360,162.5,170,-175,170,330,345,-352.5,345,875,SBD,1,
Daniel Kohut,M,,,M_O_CR_BPU,,Wraps,125,125,,,,,,,,,,,,,,SBD,NS,
Mike Overkamp,M,,,M_O_CR_BPU,,Wraps,125,125,,,,,,,,,,,,,,SBD,NS,
Ben Smith #2,M,,34,M_O_CR_BPU,,Wraps,130.1,140,220,230,240,240,190,-200,200,200,300,315,-325,315,755,SBD,1,
Jason Holmes #1,M,,,M_O_CR_BPU,,Wraps,140,140,,,,,,,,,,,,,,SBD,NS,
Scott Rawlings,M,,25,M_O_CR_BPU,,Wraps,138.2,140,-245,-245,,,,,,,,,,,,SBD,DQ,
Mariusz Pilinski,M,,37,M_O_CR_BPU,,Wraps,152.8,140+,350,370,-390,370,235,-245,-245,235,315,325,330,330,935,SBD,1,
Nick Whitecross,M,,29,M_O_CR_BPU,,Wraps,140.9,140+,,,,,,,,,,,,,,SBD,NS,
Rob Hunter,M,,31,M_O_M_ABPU,Yes,Multi-ply,86.65,90,-252.5,252.5,-260,252.5,140,155,-162.5,155,230,245,-260,245,652.5,SBD,1,
Chris Phelps,M,,31,M_O_M_BPU,,Multi-ply,78.95,82.5,270,290,300,300,180,190,-200,190,-280,280,-290,280,770,SBD,1,
Ross Rook,M,,32,M_O_M_BPU,,Multi-ply,88.15,90,350,-375,-375,350,-200,200,,200,270,295,-300,295,845,SBD,1,
Kurt Beech,M,,29,M_O_M_BPU,,Multi-ply,92.9,100,-290,290,310,310,170,-185,-185,170,275,285,290,290,770,SBD,1,
Aaron Hosking,M,,,M_O_M_BPU,,Multi-ply,140,140,,,,,,,,,,,,,,SBD,NS,
Romesh Tenuwera,M,,36,M_O_R_ABPU,Yes,Raw,49.75,52,85,90,-95,90,60,-65,-65,60,125,135,140,140,290,SBD,1,
David Gould,M,,33,M_O_R_ABPU,Yes,Raw,72.6,75,135,-145,-152.5,135,90,95,-100,95,160,175,-187.5,175,405,SBD,3,
Jethpal Nijjar,M,,25,M_O_R_ABPU,Yes,Raw,74.65,75,140,150,160,160,85,90,-95,90,165,175,182.5,182.5,432.5,SBD,2,
George Walton,M,,25,M_O_R_ABPU,Yes,Raw,73.6,75,185,197.5,-207.5,197.5,122.5,130,135,135,225,-240,240,240,572.5,SBD,1,
Jon-Paul Pearson,M,,34,M_O_R_ABPU,Yes,Raw,79.05,82.5,145,155,165,165,85,90,-92.5,90,175,192.5,-200,192.5,447.5,SBD,4,
Charles Howe,M,,27,M_O_R_ABPU,Yes,Raw,82.5,82.5,125,-135,-140,125,120,125,-127.5,125,180,200,210,210,460,SBD,3,
John Warburton,M,,32,M_O_R_ABPU,Yes,Raw,81.15,82.5,200,210,227.5,227.5,115,125,-130,125,230,250,-260,250,602.5,SBD,2,
Stefan Putter,M,,28,M_O_R_ABPU,Yes,Raw,80.75,82.5,210,230,240,240,155,165,170,170,280,300,307.5,307.5,717.5,SBD,1,
Jordan Cummings,M,,,M_O_R_ABPU,Yes,Raw,82.5,82.5,,,,,,,,,,,,,,SBD,NS,
Ken Talbot,M,,34,M_O_R_ABPU,Yes,Raw,88.8,90,135,145,155,155,95,100,107.5,107.5,185,200,210,210,472.5,SBD,7,
Dexter Curtis,M,,28,M_O_R_ABPU,Yes,Raw,88.95,90,175,192.5,-200,192.5,100,105,110,110,180,190,200,200,502.5,SBD,6,
Scott Webber,M,,32,M_O_R_ABPU,Yes,Raw,87.85,90,180,190,,190,140,150,-152.5,150,200,210,-215,210,550,SBD,5,
Craig Dobbs,M,,27,M_O_R_ABPU,Yes,Raw,89.4,90,170,180,190,190,125,135,-145,135,215,-230,240,240,565,SBD,4,
Benjamin Gadsdon,M,,27,M_O_R_ABPU,Yes,Raw,88.45,90,190,200,210,210,125,135,-145,135,220,235,-242.5,235,580,SBD,3,
Adam Gasson,M,,38,M_O_R_ABPU,Yes,Raw,87.45,90,200,220,-225,220,132.5,140,145,145,240,250,-260,250,615,SBD,2,
Philip Richardson,M,,33,M_O_R_ABPU,Yes,Raw,89.95,90,225,245,255,255,130,140,-150,140,230,240,250,250,645,SBD,1,
Michael Daltrey,M,,24,M_O_R_ABPU,Yes,Raw,95.4,100,170,185,-190,185,92.5,-100,-100,92.5,200,210,-215,210,487.5,SBD,4,
Tim Lewis,M,,26,M_O_R_ABPU,Yes,Raw,93.8,100,170,185,-190,185,120,-130,-130,120,210,220,230,230,535,SBD,3,
Angus Craddock,M,,28,M_O_R_ABPU,Yes,Raw,99.65,100,165,-177.5,177.5,177.5,130,140,-142.5,140,215,225,230,230,547.5,SBD,2,
Nigel Beattie,M,,37,M_O_R_ABPU,Yes,Raw,97.8,100,190,202.5,210,210,132.5,137.5,-142.5,137.5,250,265,-277.5,265,612.5,SBD,1,
Shaun Millward,M,,37,M_O_R_ABPU,Yes,Raw,109,110,180,-190,190,190,110,-115,-115,110,170,185,-200,185,485,SBD,2,
Nathan Wysocki,M,,25,M_O_R_ABPU,Yes,Raw,109,110,232.5,245,-255,245,140,147.5,-152.5,147.5,250,275,-280,275,667.5,SBD,1,
Adrian Bradbury,M,,37,M_O_R_ABPU,Yes,Raw,118.4,125,195,210,-220,210,122.5,130,135,135,245,260,270,270,615,SBD,2,
Edwin Bosse,M,,24,M_O_R_ABPU,Yes,Raw,121,125,220,-245,-245,220,140,152.5,155,155,270,-302.5,-302.5,270,645,SBD,1,
Alexander Tuddenham,M,,,M_O_R_ABPU,Yes,Raw,125,125,,,,,,,,,,,,,,SBD,NS,
Dennis O'shea,M,,33,M_O_R_ABPU,Yes,Raw,131,140,160,167.5,170,170,125,132.5,-135,132.5,235,245,252.5,252.5,555,SBD,1,
Sohail Rashid,M,,34,M_O_R_BPU,,Raw,73.85,75,170,180,185,185,135,142.5,145,145,220,227.5,232.5,232.5,562.5,SBD,1,
Chris Jenkins #11,M,,38,M_O_R_BPU,,Raw,82.25,82.5,220,237.5,,237.5,120,140,,140,265,315,,315,692.5,SBD,1,
Piotr Sulecki,M,,30,M_O_R_BPU,,Raw,88.8,90,-195,205,207.5,207.5,135,140,142.5,142.5,215,-230,-230,215,565,SBD,3,
Darryl Triance,M,,42,M_O_R_BPU,,Raw,89.65,90,185,205,212.5,212.5,135,-145,-145,135,-240,240,255,255,602.5,SBD,2,
Mitch Ravenscroft,M,,30,M_O_R_BPU,,Raw,89.15,90,230,,,230,160,,,160,240,,,240,630,SBD,1,
Tommy Ray D'Ortez,M,,29,M_O_R_BPU,,Raw,97.55,100,215,-225,-225,215,125,135,140,140,270,285,-292.5,285,640,SBD,2,
Tom Sheppard,M,,26,M_O_R_BPU,,Raw,99.8,100,210,-225,225,225,160,172.5,-180,172.5,270,290,-302.5,290,687.5,SBD,1,
Raimonds Mamonovs,M,,,M_O_R_BPU,,Raw,100,100,,,,,,,,,,,,,,SBD,NS,
Chris Robinson #2,M,,36,M_O_R_BPU,,Raw,91,100,-180,,,,,,,,,,,,,SBD,DQ,
Arran Sullivan,M,,28,M_O_R_BPU,,Raw,109.25,110,260,275,-285,275,165,175,-182.5,175,250,265,-280,265,715,SBD,1,
Darren Hammond,M,,47,M_O_R_BPU,,Raw,105.6,110,215,-230,-230,215,130,140,-145,140,280,295,-305,295,650,SBD,2,
Daniel Whittall,M,,25,M_O_S_ABPU,Yes,Single-ply,83.8,90,-242.5,-242.5,242.5,242.5,100,-120,,100,210,,,210,552.5,SBD,1,
Ryan Godding,M,,34,M_O_S_ABPU,Yes,Single-ply,95.85,100,250,270,290,290,-175,175,182.5,182.5,280,-305,-305,280,752.5,SBD,1,
Callum Rollo,M,,36,M_O_S_BPU,,Single-ply,88.05,90,250,265,280,280,170,180,190,190,270,-280,,270,740,SBD,1,
Andrew Murphy #1,M,,24,M_O_S_BPU,,Single-ply,97.75,100,300,325,-335,325,200,-215,-215,200,272.5,287.5,-297.5,287.5,812.5,SBD,2,
Luke Litchfield,M,,33,M_O_S_BPU,,Single-ply,98.85,100,290,310,330,330,200,217.5,227.5,227.5,250,265,-285,265,822.5,SBD,1,
Mikey Newby,M,,15,M_T1_R_ABPU,Yes,Raw,79.7,82.5,130,137.5,-145,137.5,67.5,75,-82.5,75,170,180,-195,180,392.5,SBD,1,
Johnny Nicholls,M,,17,M_T2_CR_ABPU,Yes,Wraps,56,56,80,90,100,100,62.5,70,-80,70,105,120,130,130,300,SBD,1,
Alex Foley,M,,,M_T2_CR_ABPU,Yes,Wraps,82.5,82.5,,,,,,,,,,,,,,SBD,NS,
George Purchase,M,,17,M_T2_CR_ABPU,Yes,Wraps,99.25,100,170,185,200,200,90,102.5,,102.5,170,190,205,205,507.5,SBD,1,
Matthew Pond,M,,16,M_T2_R_ABPU,Yes,Raw,72.95,75,145,155,165,165,100,107.5,112.5,112.5,165,175,185,185,462.5,SBD,1,
Zack Johnson,M,,17,M_T2_R_ABPU,Yes,Raw,87.75,90,140,150,160,160,115,122.5,-130,122.5,-175,175,185,185,467.5,SBD,2,
Alex Thompson-Carse,M,,17,M_T2_R_ABPU,Yes,Raw,85.05,90,170,185,-190,185,102.5,-110,-110,102.5,205,217.5,222.5,222.5,510,SBD,1,
Freddie Isherwood,M,,19,M_T3_CR_ABPU,Yes,Wraps,89.8,90,240,250,255,255,120,-125,-125,120,275,290,-300,290,665,SBD,1,
Darius Stagner,M,,18,M_T3_CR_ABPU,Yes,Wraps,96.25,100,200,217.5,-227.5,217.5,115,122.5,127.5,127.5,225,245,255,255,600,SBD,1,
Harvey Race,M,,19,M_T3_CR_BPU,,Wraps,120.55,125,240,,260,260,-140,-140,140,140,-300,300,-310,300,700,SBD,1,
Aiden Pattison,M,,19,M_T3_CR_BPU,,Wraps,136.75,140,220,230,242.5,242.5,140,152.5,157.5,157.5,220,242.5,-245,242.5,642.5,SBD,1,
Ryan King #8,M,,18,M_T3_R_ABPU,Yes,Raw,71.95,75,165,175,-180,175,120,125,-130,125,210,217.5,222.5,222.5,522.5,SBD,1,
